<?xml version="1.0" encoding="UTF-8" standalone="no"?>
<!DOCTYPE svg PUBLIC "-//W3C//DTD SVG 1.1//EN"
 "http://www.w3.org/Graphics/SVG/1.1/DTD/svg11.dtd">
<!-- Generated by graphviz version 2.38.0 (20140413.2041)
 -->
<!-- Title: dependencies Pages: 1 -->
<svg width="656pt" height="284pt"
 viewBox="0.00 0.00 656.00 284.00" xmlns="http://www.w3.org/2000/svg" xmlns:xlink="http://www.w3.org/1999/xlink">
<g id="graph0" class="graph" transform="scale(1 1) rotate(0) translate(4 280)">
<title>dependencies</title>
<polygon fill="white" stroke="none" points="-4,4 -4,-280 652,-280 652,4 -4,4"/>
<text text-anchor="start" x="303.009" y="-42.4" font-family="sans-serif" font-weight="bold" font-size="14.00">Legend</text>
<polygon fill="#ffffb3" stroke="none" points="90,-10 90,-30 110,-30 110,-10 90,-10"/>
<text text-anchor="start" x="113.629" y="-15.4" font-family="sans-serif" font-size="14.00"> &#160;Declarations</text>
<polygon fill="#8dd3c7" stroke="none" points="203,-10 203,-30 223,-30 223,-10 203,-10"/>
<text text-anchor="start" x="226.725" y="-15.4" font-family="sans-serif" font-size="14.00"> &#160;Module</text>
<polygon fill="#80b1d3" stroke="none" points="289,-10 289,-30 309,-30 309,-10 289,-10"/>
<text text-anchor="start" x="312.781" y="-15.4" font-family="sans-serif" font-size="14.00"> &#160;Bootstrap</text>
<polygon fill="#fdb462" stroke="none" points="386,-10 386,-30 406,-30 406,-10 386,-10"/>
<text text-anchor="start" x="409.673" y="-15.4" font-family="sans-serif" font-size="14.00"> &#160;Providers</text>
<polygon fill="#fb8072" stroke="none" points="482,-10 482,-30 502,-30 502,-10 482,-10"/>
<text text-anchor="start" x="505.726" y="-15.4" font-family="sans-serif" font-size="14.00"> &#160;Exports</text>
<g id="clust1" class="cluster"><title>cluster_CtsAppDragDropModule</title>
<polygon fill="none" stroke="black" stroke-dasharray="1,5" points="8,-70 8,-268 640,-268 640,-70 8,-70"/>
</g>
<g id="clust2" class="cluster"><title>cluster_CtsAppDragDropModule_declarations</title>
<polygon fill="none" stroke="black" points="258,-78 258,-130 632,-130 632,-78 258,-78"/>
</g>
<g id="clust6" class="cluster"><title>cluster_CtsAppDragDropModule_exports</title>
<polygon fill="none" stroke="black" points="158,-208 158,-260 538,-260 538,-208 158,-208"/>
</g>
<g id="clust8" class="cluster"><title>cluster_CtsAppDragDropModule_providers</title>
<polygon fill="none" stroke="black" points="16,-78 16,-130 250,-130 250,-78 16,-78"/>
</g>
<!-- CtsAppDraggableDirective -->
<g id="node1" class="node"><title>CtsAppDraggableDirective</title>
<polygon fill="#ffffb3" stroke="black" points="623.663,-122 454.337,-122 454.337,-86 623.663,-86 623.663,-122"/>
<text text-anchor="middle" x="539" y="-99.8" font-family="Times,serif" font-size="14.00">CtsAppDraggableDirective</text>
</g>
<!-- CtsAppDragDropModule -->
<g id="node3" class="node"><title>CtsAppDragDropModule</title>
<polygon fill="#8dd3c7" stroke="black" points="430.577,-187 427.577,-191 406.577,-191 403.577,-187 271.423,-187 271.423,-151 430.577,-151 430.577,-187"/>
<text text-anchor="middle" x="351" y="-164.8" font-family="Times,serif" font-size="14.00">CtsAppDragDropModule</text>
</g>
<!-- CtsAppDraggableDirective&#45;&gt;CtsAppDragDropModule -->
<g id="edge1" class="edge"><title>CtsAppDraggableDirective&#45;&gt;CtsAppDragDropModule</title>
<path fill="none" stroke="black" d="M492.375,-122.106C492.375,-141.339 492.375,-169 492.375,-169 492.375,-169 440.777,-169 440.777,-169"/>
<polygon fill="black" stroke="black" points="440.777,-165.5 430.777,-169 440.777,-172.5 440.777,-165.5"/>
</g>
<!-- CtsAppDroppableDirective -->
<g id="node2" class="node"><title>CtsAppDroppableDirective</title>
<polygon fill="#ffffb3" stroke="black" points="435.948,-122 266.052,-122 266.052,-86 435.948,-86 435.948,-122"/>
<text text-anchor="middle" x="351" y="-99.8" font-family="Times,serif" font-size="14.00">CtsAppDroppableDirective</text>
</g>
<!-- CtsAppDroppableDirective&#45;&gt;CtsAppDragDropModule -->
<g id="edge2" class="edge"><title>CtsAppDroppableDirective&#45;&gt;CtsAppDragDropModule</title>
<path fill="none" stroke="black" d="M351,-122.106C351,-122.106 351,-140.991 351,-140.991"/>
<polygon fill="black" stroke="black" points="347.5,-140.991 351,-150.991 354.5,-140.991 347.5,-140.991"/>
</g>
<!-- CtsAppDraggableDirective  -->
<g id="node4" class="node"><title>CtsAppDraggableDirective </title>
<polygon fill="#fb8072" stroke="black" points="530.163,-252 357.837,-252 357.837,-216 530.163,-216 530.163,-252"/>
<text text-anchor="middle" x="444" y="-229.8" font-family="Times,serif" font-size="14.00">CtsAppDraggableDirective </text>
</g>
<!-- CtsAppDragDropModule&#45;&gt;CtsAppDraggableDirective  -->
<g id="edge3" class="edge"><title>CtsAppDragDropModule&#45;&gt;CtsAppDraggableDirective </title>
<path fill="none" stroke="black" stroke-dasharray="5,2" d="M394.104,-187.106C394.104,-187.106 394.104,-205.991 394.104,-205.991"/>
<polygon fill="black" stroke="black" points="390.604,-205.991 394.104,-215.991 397.604,-205.991 390.604,-205.991"/>
</g>
<!-- CtsAppDroppableDirective  -->
<g id="node5" class="node"><title>CtsAppDroppableDirective </title>
<polygon fill="#fb8072" stroke="black" points="339.949,-252 166.051,-252 166.051,-216 339.949,-216 339.949,-252"/>
<text text-anchor="middle" x="253" y="-229.8" font-family="Times,serif" font-size="14.00">CtsAppDroppableDirective </text>
</g>
<!-- CtsAppDragDropModule&#45;&gt;CtsAppDroppableDirective  -->
<g id="edge4" class="edge"><title>CtsAppDragDropModule&#45;&gt;CtsAppDroppableDirective </title>
<path fill="none" stroke="black" stroke-dasharray="5,2" d="M305.593,-187.106C305.593,-187.106 305.593,-205.991 305.593,-205.991"/>
<polygon fill="black" stroke="black" points="302.093,-205.991 305.593,-215.991 309.093,-205.991 302.093,-205.991"/>
</g>
<!-- CtsAppDragDropService -->
<g id="node6" class="node"><title>CtsAppDragDropService</title>
<ellipse fill="#fdb462" stroke="black" cx="133" cy="-104" rx="108.788" ry="18"/>
<text text-anchor="middle" x="133" y="-99.8" font-family="Times,serif" font-size="14.00">CtsAppDragDropService</text>
</g>
<!-- CtsAppDragDropService&#45;&gt;CtsAppDragDropModule -->
<g id="edge5" class="edge"><title>CtsAppDragDropService&#45;&gt;CtsAppDragDropModule</title>
<path fill="none" stroke="black" d="M203.96,-117.785C203.96,-136.865 203.96,-169 203.96,-169 203.96,-169 261.455,-169 261.455,-169"/>
<polygon fill="black" stroke="black" points="261.455,-172.5 271.455,-169 261.455,-165.5 261.455,-172.5"/>
</g>
</g>
</svg>
