<?xml version="1.0" encoding="UTF-8" standalone="no"?>
<!DOCTYPE svg PUBLIC "-//W3C//DTD SVG 1.1//EN"
 "http://www.w3.org/Graphics/SVG/1.1/DTD/svg11.dtd">
<!-- Generated by graphviz version 2.38.0 (20140413.2041)
 -->
<!-- Title: dependencies Pages: 1 -->
<svg width="504pt" height="284pt"
 viewBox="0.00 0.00 504.00 284.00" xmlns="http://www.w3.org/2000/svg" xmlns:xlink="http://www.w3.org/1999/xlink">
<g id="graph0" class="graph" transform="scale(1 1) rotate(0) translate(4 280)">
<title>dependencies</title>
<polygon fill="white" stroke="none" points="-4,4 -4,-280 500,-280 500,4 -4,4"/>
<text text-anchor="start" x="227.009" y="-42.4" font-family="sans-serif" font-weight="bold" font-size="14.00">Legend</text>
<polygon fill="#ffffb3" stroke="none" points="14,-10 14,-30 34,-30 34,-10 14,-10"/>
<text text-anchor="start" x="37.629" y="-15.4" font-family="sans-serif" font-size="14.00"> &#160;Declarations</text>
<polygon fill="#8dd3c7" stroke="none" points="127,-10 127,-30 147,-30 147,-10 127,-10"/>
<text text-anchor="start" x="150.725" y="-15.4" font-family="sans-serif" font-size="14.00"> &#160;Module</text>
<polygon fill="#80b1d3" stroke="none" points="213,-10 213,-30 233,-30 233,-10 213,-10"/>
<text text-anchor="start" x="236.781" y="-15.4" font-family="sans-serif" font-size="14.00"> &#160;Bootstrap</text>
<polygon fill="#fdb462" stroke="none" points="310,-10 310,-30 330,-30 330,-10 310,-10"/>
<text text-anchor="start" x="333.673" y="-15.4" font-family="sans-serif" font-size="14.00"> &#160;Providers</text>
<polygon fill="#fb8072" stroke="none" points="406,-10 406,-30 426,-30 426,-10 406,-10"/>
<text text-anchor="start" x="429.726" y="-15.4" font-family="sans-serif" font-size="14.00"> &#160;Exports</text>
<g id="clust1" class="cluster"><title>cluster_BootstrapTourModule</title>
<polygon fill="none" stroke="black" stroke-dasharray="1,5" points="49,-70 49,-268 447,-268 447,-70 49,-70"/>
</g>
<g id="clust2" class="cluster"><title>cluster_BootstrapTourModule_declarations</title>
<polygon fill="none" stroke="black" points="273,-78 273,-130 439,-130 439,-78 273,-78"/>
</g>
<g id="clust5" class="cluster"><title>cluster_BootstrapTourModule_exports</title>
<polygon fill="none" stroke="black" points="172,-208 172,-260 342,-260 342,-208 172,-208"/>
</g>
<g id="clust7" class="cluster"><title>cluster_BootstrapTourModule_providers</title>
<polygon fill="none" stroke="black" points="57,-78 57,-130 265,-130 265,-78 57,-78"/>
</g>
<!-- BootstrapTourDirective -->
<g id="node1" class="node"><title>BootstrapTourDirective</title>
<polygon fill="#ffffb3" stroke="black" points="430.734,-122 281.266,-122 281.266,-86 430.734,-86 430.734,-122"/>
<text text-anchor="middle" x="356" y="-99.8" font-family="Times,serif" font-size="14.00">BootstrapTourDirective</text>
</g>
<!-- BootstrapTourModule -->
<g id="node2" class="node"><title>BootstrapTourModule</title>
<polygon fill="#8dd3c7" stroke="black" points="327.701,-187 324.701,-191 303.701,-191 300.701,-187 186.299,-187 186.299,-151 327.701,-151 327.701,-187"/>
<text text-anchor="middle" x="257" y="-164.8" font-family="Times,serif" font-size="14.00">BootstrapTourModule</text>
</g>
<!-- BootstrapTourDirective&#45;&gt;BootstrapTourModule -->
<g id="edge1" class="edge"><title>BootstrapTourDirective&#45;&gt;BootstrapTourModule</title>
<path fill="none" stroke="black" d="M304.367,-122.106C304.367,-122.106 304.367,-140.991 304.367,-140.991"/>
<polygon fill="black" stroke="black" points="300.867,-140.991 304.367,-150.991 307.867,-140.991 300.867,-140.991"/>
</g>
<!-- BootstrapTourDirective  -->
<g id="node3" class="node"><title>BootstrapTourDirective </title>
<polygon fill="#fb8072" stroke="black" points="333.734,-252 180.266,-252 180.266,-216 333.734,-216 333.734,-252"/>
<text text-anchor="middle" x="257" y="-229.8" font-family="Times,serif" font-size="14.00">BootstrapTourDirective </text>
</g>
<!-- BootstrapTourModule&#45;&gt;BootstrapTourDirective  -->
<g id="edge2" class="edge"><title>BootstrapTourModule&#45;&gt;BootstrapTourDirective </title>
<path fill="none" stroke="black" stroke-dasharray="5,2" d="M257,-187.106C257,-187.106 257,-205.991 257,-205.991"/>
<polygon fill="black" stroke="black" points="253.5,-205.991 257,-215.991 260.5,-205.991 253.5,-205.991"/>
</g>
<!-- BootstrapTourService -->
<g id="node4" class="node"><title>BootstrapTourService</title>
<ellipse fill="#fdb462" stroke="black" cx="161" cy="-104" rx="96.1266" ry="18"/>
<text text-anchor="middle" x="161" y="-99.8" font-family="Times,serif" font-size="14.00">BootstrapTourService</text>
</g>
<!-- BootstrapTourService&#45;&gt;BootstrapTourModule -->
<g id="edge3" class="edge"><title>BootstrapTourService&#45;&gt;BootstrapTourModule</title>
<path fill="none" stroke="black" d="M221.856,-118.104C221.856,-118.104 221.856,-140.721 221.856,-140.721"/>
<polygon fill="black" stroke="black" points="218.357,-140.721 221.856,-150.721 225.357,-140.721 218.357,-140.721"/>
</g>
</g>
</svg>
