<?xml version="1.0" encoding="UTF-8" standalone="no"?>
<!DOCTYPE svg PUBLIC "-//W3C//DTD SVG 1.1//EN"
 "http://www.w3.org/Graphics/SVG/1.1/DTD/svg11.dtd">
<!-- Generated by graphviz version 2.38.0 (20140413.2041)
 -->
<!-- Title: dependencies Pages: 1 -->
<svg width="1191pt" height="284pt"
 viewBox="0.00 0.00 1191.00 284.00" xmlns="http://www.w3.org/2000/svg" xmlns:xlink="http://www.w3.org/1999/xlink">
<g id="graph0" class="graph" transform="scale(1 1) rotate(0) translate(4 280)">
<title>dependencies</title>
<polygon fill="white" stroke="none" points="-4,4 -4,-280 1187,-280 1187,4 -4,4"/>
<text text-anchor="start" x="570.509" y="-42.4" font-family="sans-serif" font-weight="bold" font-size="14.00">Legend</text>
<polygon fill="#ffffb3" stroke="none" points="357.5,-10 357.5,-30 377.5,-30 377.5,-10 357.5,-10"/>
<text text-anchor="start" x="381.129" y="-15.4" font-family="sans-serif" font-size="14.00"> &#160;Declarations</text>
<polygon fill="#8dd3c7" stroke="none" points="470.5,-10 470.5,-30 490.5,-30 490.5,-10 470.5,-10"/>
<text text-anchor="start" x="494.225" y="-15.4" font-family="sans-serif" font-size="14.00"> &#160;Module</text>
<polygon fill="#80b1d3" stroke="none" points="556.5,-10 556.5,-30 576.5,-30 576.5,-10 556.5,-10"/>
<text text-anchor="start" x="580.281" y="-15.4" font-family="sans-serif" font-size="14.00"> &#160;Bootstrap</text>
<polygon fill="#fdb462" stroke="none" points="653.5,-10 653.5,-30 673.5,-30 673.5,-10 653.5,-10"/>
<text text-anchor="start" x="677.173" y="-15.4" font-family="sans-serif" font-size="14.00"> &#160;Providers</text>
<polygon fill="#fb8072" stroke="none" points="749.5,-10 749.5,-30 769.5,-30 769.5,-10 749.5,-10"/>
<text text-anchor="start" x="773.226" y="-15.4" font-family="sans-serif" font-size="14.00"> &#160;Exports</text>
<g id="clust1" class="cluster"><title>cluster_WizardModule</title>
<polygon fill="none" stroke="black" stroke-dasharray="1,5" points="8,-70 8,-268 1175,-268 1175,-70 8,-70"/>
</g>
<g id="clust2" class="cluster"><title>cluster_WizardModule_declarations</title>
<polygon fill="none" stroke="black" points="312,-78 312,-130 1167,-130 1167,-78 312,-78"/>
</g>
<g id="clust8" class="cluster"><title>cluster_WizardModule_imports</title>
<polygon fill="none" stroke="black" points="176,-78 176,-130 304,-130 304,-78 176,-78"/>
</g>
<g id="clust9" class="cluster"><title>cluster_WizardModule_exports</title>
<polygon fill="none" stroke="black" points="119,-208 119,-260 992,-260 992,-208 119,-208"/>
</g>
<g id="clust11" class="cluster"><title>cluster_WizardModule_providers</title>
<polygon fill="none" stroke="black" points="16,-78 16,-130 168,-130 168,-78 16,-78"/>
</g>
<!-- WizardDirective -->
<g id="node1" class="node"><title>WizardDirective</title>
<polygon fill="#ffffb3" stroke="black" points="1158.78,-122 1049.22,-122 1049.22,-86 1158.78,-86 1158.78,-122"/>
<text text-anchor="middle" x="1104" y="-99.8" font-family="Times,serif" font-size="14.00">WizardDirective</text>
</g>
<!-- WizardModule -->
<g id="node6" class="node"><title>WizardModule</title>
<polygon fill="#8dd3c7" stroke="black" points="660.245,-187 657.245,-191 636.245,-191 633.245,-187 559.755,-187 559.755,-151 660.245,-151 660.245,-187"/>
<text text-anchor="middle" x="610" y="-164.8" font-family="Times,serif" font-size="14.00">WizardModule</text>
</g>
<!-- WizardDirective&#45;&gt;WizardModule -->
<g id="edge1" class="edge"><title>WizardDirective&#45;&gt;WizardModule</title>
<path fill="none" stroke="black" d="M1104,-122.106C1104,-141.339 1104,-169 1104,-169 1104,-169 670.545,-169 670.545,-169"/>
<polygon fill="black" stroke="black" points="670.545,-165.5 660.545,-169 670.545,-172.5 670.545,-165.5"/>
</g>
<!-- WizardStepsComponent -->
<g id="node2" class="node"><title>WizardStepsComponent</title>
<polygon fill="#ffffb3" stroke="black" points="1031.36,-122 878.64,-122 878.64,-86 1031.36,-86 1031.36,-122"/>
<text text-anchor="middle" x="955" y="-99.8" font-family="Times,serif" font-size="14.00">WizardStepsComponent</text>
</g>
<!-- WizardStepsComponent&#45;&gt;WizardModule -->
<g id="edge2" class="edge"><title>WizardStepsComponent&#45;&gt;WizardModule</title>
<path fill="none" stroke="black" d="M913.843,-122.023C913.843,-139.373 913.843,-163 913.843,-163 913.843,-163 670.515,-163 670.515,-163"/>
<polygon fill="black" stroke="black" points="670.515,-159.5 660.515,-163 670.515,-166.5 670.515,-159.5"/>
</g>
<!-- WizardStepDirective -->
<g id="node3" class="node"><title>WizardStepDirective</title>
<polygon fill="#ffffb3" stroke="black" points="860.166,-122 725.834,-122 725.834,-86 860.166,-86 860.166,-122"/>
<text text-anchor="middle" x="793" y="-99.8" font-family="Times,serif" font-size="14.00">WizardStepDirective</text>
</g>
<!-- WizardStepDirective&#45;&gt;WizardModule -->
<g id="edge3" class="edge"><title>WizardStepDirective&#45;&gt;WizardModule</title>
<path fill="none" stroke="black" d="M789.549,-122.24C789.549,-137.571 789.549,-157 789.549,-157 789.549,-157 670.492,-157 670.492,-157"/>
<polygon fill="black" stroke="black" points="670.492,-153.5 660.492,-157 670.492,-160.5 670.492,-153.5"/>
</g>
<!-- WizardPreviousButtonDirective -->
<g id="node4" class="node"><title>WizardPreviousButtonDirective</title>
<polygon fill="#ffffb3" stroke="black" points="708.389,-122 511.611,-122 511.611,-86 708.389,-86 708.389,-122"/>
<text text-anchor="middle" x="610" y="-99.8" font-family="Times,serif" font-size="14.00">WizardPreviousButtonDirective</text>
</g>
<!-- WizardPreviousButtonDirective&#45;&gt;WizardModule -->
<g id="edge4" class="edge"><title>WizardPreviousButtonDirective&#45;&gt;WizardModule</title>
<path fill="none" stroke="black" d="M610,-122.106C610,-122.106 610,-140.991 610,-140.991"/>
<polygon fill="black" stroke="black" points="606.5,-140.991 610,-150.991 613.5,-140.991 606.5,-140.991"/>
</g>
<!-- WizardNextButtonDirective -->
<g id="node5" class="node"><title>WizardNextButtonDirective</title>
<polygon fill="#ffffb3" stroke="black" points="494.108,-122 319.892,-122 319.892,-86 494.108,-86 494.108,-122"/>
<text text-anchor="middle" x="407" y="-99.8" font-family="Times,serif" font-size="14.00">WizardNextButtonDirective</text>
</g>
<!-- WizardNextButtonDirective&#45;&gt;WizardModule -->
<g id="edge5" class="edge"><title>WizardNextButtonDirective&#45;&gt;WizardModule</title>
<path fill="none" stroke="black" d="M408.68,-122.24C408.68,-137.571 408.68,-157 408.68,-157 408.68,-157 549.718,-157 549.718,-157"/>
<polygon fill="black" stroke="black" points="549.718,-160.5 559.718,-157 549.718,-153.5 549.718,-160.5"/>
</g>
<!-- WizardDirective  -->
<g id="node8" class="node"><title>WizardDirective </title>
<polygon fill="#fb8072" stroke="black" points="984.278,-252 871.722,-252 871.722,-216 984.278,-216 984.278,-252"/>
<text text-anchor="middle" x="928" y="-229.8" font-family="Times,serif" font-size="14.00">WizardDirective </text>
</g>
<!-- WizardModule&#45;&gt;WizardDirective  -->
<g id="edge7" class="edge"><title>WizardModule&#45;&gt;WizardDirective </title>
<path fill="none" stroke="black" stroke-dasharray="5,2" d="M660.403,-175C754.87,-175 949.116,-175 949.116,-175 949.116,-175 949.116,-205.977 949.116,-205.977"/>
<polygon fill="black" stroke="black" points="945.616,-205.977 949.116,-215.977 952.616,-205.978 945.616,-205.977"/>
</g>
<!-- WizardStepsComponent  -->
<g id="node9" class="node"><title>WizardStepsComponent </title>
<polygon fill="#fb8072" stroke="black" points="853.36,-252 696.64,-252 696.64,-216 853.36,-216 853.36,-252"/>
<text text-anchor="middle" x="775" y="-229.8" font-family="Times,serif" font-size="14.00">WizardStepsComponent </text>
</g>
<!-- WizardModule&#45;&gt;WizardStepsComponent  -->
<g id="edge8" class="edge"><title>WizardModule&#45;&gt;WizardStepsComponent </title>
<path fill="none" stroke="black" stroke-dasharray="5,2" d="M660.314,-181C682.011,-181 702.507,-181 702.507,-181 702.507,-181 702.507,-205.76 702.507,-205.76"/>
<polygon fill="black" stroke="black" points="699.007,-205.76 702.507,-215.76 706.007,-205.76 699.007,-205.76"/>
</g>
<!-- WizardStepDirective  -->
<g id="node10" class="node"><title>WizardStepDirective </title>
<polygon fill="#fb8072" stroke="black" points="678.666,-252 541.334,-252 541.334,-216 678.666,-216 678.666,-252"/>
<text text-anchor="middle" x="610" y="-229.8" font-family="Times,serif" font-size="14.00">WizardStepDirective </text>
</g>
<!-- WizardModule&#45;&gt;WizardStepDirective  -->
<g id="edge9" class="edge"><title>WizardModule&#45;&gt;WizardStepDirective </title>
<path fill="none" stroke="black" stroke-dasharray="5,2" d="M610,-187.106C610,-187.106 610,-205.991 610,-205.991"/>
<polygon fill="black" stroke="black" points="606.5,-205.991 610,-215.991 613.5,-205.991 606.5,-205.991"/>
</g>
<!-- WizardPreviousButtonDirective  -->
<g id="node11" class="node"><title>WizardPreviousButtonDirective </title>
<polygon fill="#fb8072" stroke="black" points="522.889,-252 323.111,-252 323.111,-216 522.889,-216 522.889,-252"/>
<text text-anchor="middle" x="423" y="-229.8" font-family="Times,serif" font-size="14.00">WizardPreviousButtonDirective </text>
</g>
<!-- WizardModule&#45;&gt;WizardPreviousButtonDirective  -->
<g id="edge10" class="edge"><title>WizardModule&#45;&gt;WizardPreviousButtonDirective </title>
<path fill="none" stroke="black" stroke-dasharray="5,2" d="M559.622,-181C537.897,-181 517.375,-181 517.375,-181 517.375,-181 517.375,-205.76 517.375,-205.76"/>
<polygon fill="black" stroke="black" points="513.875,-205.76 517.375,-215.76 520.875,-205.76 513.875,-205.76"/>
</g>
<!-- WizardNextButtonDirective  -->
<g id="node12" class="node"><title>WizardNextButtonDirective </title>
<polygon fill="#fb8072" stroke="black" points="305.107,-252 126.893,-252 126.893,-216 305.107,-216 305.107,-252"/>
<text text-anchor="middle" x="216" y="-229.8" font-family="Times,serif" font-size="14.00">WizardNextButtonDirective </text>
</g>
<!-- WizardModule&#45;&gt;WizardNextButtonDirective  -->
<g id="edge11" class="edge"><title>WizardModule&#45;&gt;WizardNextButtonDirective </title>
<path fill="none" stroke="black" stroke-dasharray="5,2" d="M559.575,-175C471.859,-175 300.444,-175 300.444,-175 300.444,-175 300.444,-205.977 300.444,-205.977"/>
<polygon fill="black" stroke="black" points="296.944,-205.977 300.444,-215.977 303.944,-205.978 296.944,-205.977"/>
</g>
<!-- CommonModule -->
<g id="node7" class="node"><title>CommonModule</title>
<polygon fill="#8dd3c7" stroke="black" points="295.668,-122 292.668,-126 271.668,-126 268.668,-122 184.332,-122 184.332,-86 295.668,-86 295.668,-122"/>
<text text-anchor="middle" x="240" y="-99.8" font-family="Times,serif" font-size="14.00">CommonModule</text>
</g>
<!-- CommonModule&#45;&gt;WizardModule -->
<g id="edge6" class="edge"><title>CommonModule&#45;&gt;WizardModule</title>
<path fill="none" stroke="black" d="M240,-122.023C240,-139.373 240,-163 240,-163 240,-163 549.715,-163 549.715,-163"/>
<polygon fill="black" stroke="black" points="549.715,-166.5 559.715,-163 549.715,-159.5 549.715,-166.5"/>
</g>
<!-- WizardService -->
<g id="node13" class="node"><title>WizardService</title>
<ellipse fill="#fdb462" stroke="black" cx="92" cy="-104" rx="68.315" ry="18"/>
<text text-anchor="middle" x="92" y="-99.8" font-family="Times,serif" font-size="14.00">WizardService</text>
</g>
<!-- WizardService&#45;&gt;WizardModule -->
<g id="edge12" class="edge"><title>WizardService&#45;&gt;WizardModule</title>
<path fill="none" stroke="black" d="M143.677,-115.922C143.677,-134.687 143.677,-169 143.677,-169 143.677,-169 549.652,-169 549.652,-169"/>
<polygon fill="black" stroke="black" points="549.652,-172.5 559.652,-169 549.652,-165.5 549.652,-172.5"/>
</g>
</g>
</svg>
