<?xml version="1.0" encoding="UTF-8" standalone="no"?>
<!DOCTYPE svg PUBLIC "-//W3C//DTD SVG 1.1//EN"
 "http://www.w3.org/Graphics/SVG/1.1/DTD/svg11.dtd">
<!-- Generated by graphviz version 2.38.0 (20140413.2041)
 -->
<!-- Title: dependencies Pages: 1 -->
<svg width="11651pt" height="442pt"
 viewBox="0.00 0.00 11651.00 442.00" xmlns="http://www.w3.org/2000/svg" xmlns:xlink="http://www.w3.org/1999/xlink">
<g id="graph0" class="graph" transform="scale(1 1) rotate(0) translate(4 438)">
<title>dependencies</title>
<polygon fill="white" stroke="none" points="-4,4 -4,-438 11647,-438 11647,4 -4,4"/>
<text text-anchor="start" x="5800.51" y="-42.4" font-family="sans-serif" font-weight="bold" font-size="14.00">Legend</text>
<polygon fill="#ffffb3" stroke="none" points="5587.5,-10 5587.5,-30 5607.5,-30 5607.5,-10 5587.5,-10"/>
<text text-anchor="start" x="5611.13" y="-15.4" font-family="sans-serif" font-size="14.00"> &#160;Declarations</text>
<polygon fill="#8dd3c7" stroke="none" points="5700.5,-10 5700.5,-30 5720.5,-30 5720.5,-10 5700.5,-10"/>
<text text-anchor="start" x="5724.23" y="-15.4" font-family="sans-serif" font-size="14.00"> &#160;Module</text>
<polygon fill="#80b1d3" stroke="none" points="5786.5,-10 5786.5,-30 5806.5,-30 5806.5,-10 5786.5,-10"/>
<text text-anchor="start" x="5810.28" y="-15.4" font-family="sans-serif" font-size="14.00"> &#160;Bootstrap</text>
<polygon fill="#fdb462" stroke="none" points="5883.5,-10 5883.5,-30 5903.5,-30 5903.5,-10 5883.5,-10"/>
<text text-anchor="start" x="5907.17" y="-15.4" font-family="sans-serif" font-size="14.00"> &#160;Providers</text>
<polygon fill="#fb8072" stroke="none" points="5979.5,-10 5979.5,-30 5999.5,-30 5999.5,-10 5979.5,-10"/>
<text text-anchor="start" x="6003.23" y="-15.4" font-family="sans-serif" font-size="14.00"> &#160;Exports</text>
<g id="clust1" class="cluster"><title>cluster_AppRoutingModule</title>
<polygon fill="none" stroke="black" stroke-dasharray="1,5" points="8,-146 8,-358 643,-358 643,-146 8,-146"/>
</g>
<g id="clust2" class="cluster"><title>cluster_AppRoutingModule_declarations</title>
<polygon fill="none" stroke="black" points="16,-154 16,-206 320,-206 320,-154 16,-154"/>
</g>
<g id="clust5" class="cluster"><title>cluster_AppRoutingModule_imports</title>
<polygon fill="none" stroke="black" points="328,-154 328,-206 635,-206 635,-154 328,-154"/>
</g>
<g id="clust6" class="cluster"><title>cluster_AppRoutingModule_exports</title>
<polygon fill="none" stroke="black" points="456,-298 456,-350 574,-350 574,-298 456,-298"/>
</g>
<g id="clust9" class="cluster"><title>cluster_AppModule</title>
<polygon fill="none" stroke="black" stroke-dasharray="1,5" points="651,-222 651,-426 1549,-426 1549,-222 651,-222"/>
</g>
<g id="clust10" class="cluster"><title>cluster_AppModule_declarations</title>
<polygon fill="none" stroke="black" points="1419,-230 1419,-282 1541,-282 1541,-230 1419,-230"/>
</g>
<g id="clust12" class="cluster"><title>cluster_AppModule_imports</title>
<polygon fill="none" stroke="black" points="940,-230 940,-282 1411,-282 1411,-230 940,-230"/>
</g>
<g id="clust14" class="cluster"><title>cluster_AppModule_bootstrap</title>
<polygon fill="none" stroke="black" points="992,-366 992,-418 1116,-418 1116,-366 992,-366"/>
</g>
<g id="clust15" class="cluster"><title>cluster_AppModule_providers</title>
<polygon fill="none" stroke="black" points="659,-230 659,-282 932,-282 932,-230 659,-230"/>
</g>
<g id="clust16" class="cluster"><title>cluster_DashboardRoutingModule</title>
<polygon fill="none" stroke="black" stroke-dasharray="1,5" points="830,-70 830,-206 1044,-206 1044,-70 830,-70"/>
</g>
<g id="clust18" class="cluster"><title>cluster_DashboardRoutingModule_imports</title>
<polygon fill="none" stroke="black" points="838,-78 838,-130 1036,-130 1036,-78 838,-78"/>
</g>
<g id="clust22" class="cluster"><title>cluster_DashboardModule</title>
<polygon fill="none" stroke="black" stroke-dasharray="1,5" points="1949,-146 1949,-290 9715,-290 9715,-146 1949,-146"/>
</g>
<g id="clust23" class="cluster"><title>cluster_DashboardModule_declarations</title>
<polygon fill="none" stroke="black" points="3955,-154 3955,-206 8738,-206 8738,-154 3955,-154"/>
</g>
<g id="clust48" class="cluster"><title>cluster_DashboardModule_imports</title>
<polygon fill="none" stroke="black" points="8746,-154 8746,-282 9707,-282 9707,-154 8746,-154"/>
</g>
<g id="clust51" class="cluster"><title>cluster_DashboardModule_providers</title>
<polygon fill="none" stroke="black" points="1957,-154 1957,-206 3947,-206 3947,-154 1957,-154"/>
</g>
<g id="clust52" class="cluster"><title>cluster_BootstrapTourModule</title>
<polygon fill="none" stroke="black" stroke-dasharray="1,5" points="7584,-70 7584,-138 8160,-138 8160,-70 7584,-70"/>
</g>
<g id="clust53" class="cluster"><title>cluster_BootstrapTourModule_declarations</title>
<polygon fill="none" stroke="black" points="7986,-78 7986,-130 8152,-130 8152,-78 7986,-78"/>
</g>
<g id="clust56" class="cluster"><title>cluster_BootstrapTourModule_exports</title>
<polygon fill="none" stroke="black" points="7808,-78 7808,-130 7978,-130 7978,-78 7808,-78"/>
</g>
<g id="clust58" class="cluster"><title>cluster_BootstrapTourModule_providers</title>
<polygon fill="none" stroke="black" points="7592,-78 7592,-130 7800,-130 7800,-78 7592,-78"/>
</g>
<g id="clust59" class="cluster"><title>cluster_CtsAppDragDropModule</title>
<polygon fill="none" stroke="black" stroke-dasharray="1,5" points="8168,-70 8168,-138 9188,-138 9188,-70 8168,-70"/>
</g>
<g id="clust60" class="cluster"><title>cluster_CtsAppDragDropModule_declarations</title>
<polygon fill="none" stroke="black" points="8806,-78 8806,-130 9180,-130 9180,-78 8806,-78"/>
</g>
<g id="clust64" class="cluster"><title>cluster_CtsAppDragDropModule_exports</title>
<polygon fill="none" stroke="black" points="8418,-78 8418,-130 8798,-130 8798,-78 8418,-78"/>
</g>
<g id="clust66" class="cluster"><title>cluster_CtsAppDragDropModule_providers</title>
<polygon fill="none" stroke="black" points="8176,-78 8176,-130 8410,-130 8410,-78 8176,-78"/>
</g>
<g id="clust67" class="cluster"><title>cluster_WizardModule</title>
<polygon fill="none" stroke="black" stroke-dasharray="1,5" points="9723,-146 9723,-214 11635,-214 11635,-146 9723,-146"/>
</g>
<g id="clust68" class="cluster"><title>cluster_WizardModule_declarations</title>
<polygon fill="none" stroke="black" points="10772,-154 10772,-206 11627,-206 11627,-154 10772,-154"/>
</g>
<g id="clust75" class="cluster"><title>cluster_WizardModule_exports</title>
<polygon fill="none" stroke="black" points="9891,-154 9891,-206 10764,-206 10764,-154 9891,-154"/>
</g>
<g id="clust77" class="cluster"><title>cluster_WizardModule_providers</title>
<polygon fill="none" stroke="black" points="9731,-154 9731,-206 9883,-206 9883,-154 9731,-154"/>
</g>
<g id="clust78" class="cluster"><title>cluster_BootstrapDateTimePickerModule</title>
<polygon fill="none" stroke="black" stroke-dasharray="1,5" points="1557,-222 1557,-290 1941,-290 1941,-222 1557,-222"/>
</g>
<g id="clust79" class="cluster"><title>cluster_BootstrapDateTimePickerModule_declarations</title>
<polygon fill="none" stroke="black" points="1755,-230 1755,-282 1933,-282 1933,-230 1755,-230"/>
</g>
<g id="clust82" class="cluster"><title>cluster_BootstrapDateTimePickerModule_exports</title>
<polygon fill="none" stroke="black" points="1565,-230 1565,-282 1747,-282 1747,-230 1565,-230"/>
</g>
<g id="clust85" class="cluster"><title>cluster_NgbModalModule</title>
<polygon fill="none" stroke="black" stroke-dasharray="1,5" points="9196,-70 9196,-138 10153,-138 10153,-70 9196,-70"/>
</g>
<g id="clust86" class="cluster"><title>cluster_NgbModalModule_declarations</title>
<polygon fill="none" stroke="black" points="9494,-78 9494,-130 10145,-130 10145,-78 9494,-78"/>
</g>
<g id="clust92" class="cluster"><title>cluster_NgbModalModule_exports</title>
<polygon fill="none" stroke="black" points="9334,-78 9334,-130 9486,-130 9486,-78 9334,-78"/>
</g>
<g id="clust94" class="cluster"><title>cluster_NgbModalModule_providers</title>
<polygon fill="none" stroke="black" points="9204,-78 9204,-130 9326,-130 9326,-78 9204,-78"/>
</g>
<!-- LoginComponent -->
<g id="node1" class="node"><title>LoginComponent</title>
<polygon fill="#ffffb3" stroke="black" points="312.276,-198 197.724,-198 197.724,-162 312.276,-162 312.276,-198"/>
<text text-anchor="middle" x="255" y="-175.8" font-family="Times,serif" font-size="14.00">LoginComponent</text>
</g>
<!-- AppRoutingModule -->
<g id="node3" class="node"><title>AppRoutingModule</title>
<polygon fill="#8dd3c7" stroke="black" points="518.274,-274 515.274,-278 494.274,-278 491.274,-274 389.726,-274 389.726,-238 518.274,-238 518.274,-274"/>
<text text-anchor="middle" x="454" y="-251.8" font-family="Times,serif" font-size="14.00">AppRoutingModule</text>
</g>
<!-- LoginComponent&#45;&gt;AppRoutingModule -->
<g id="edge1" class="edge"><title>LoginComponent&#45;&gt;AppRoutingModule</title>
<path fill="none" stroke="black" d="M255,-198.027C255,-218.767 255,-250 255,-250 255,-250 379.665,-250 379.665,-250"/>
<polygon fill="black" stroke="black" points="379.665,-253.5 389.665,-250 379.665,-246.5 379.665,-253.5"/>
</g>
<!-- LandingPageComponent -->
<g id="node2" class="node"><title>LandingPageComponent</title>
<polygon fill="#ffffb3" stroke="black" points="179.702,-198 24.2979,-198 24.2979,-162 179.702,-162 179.702,-198"/>
<text text-anchor="middle" x="102" y="-175.8" font-family="Times,serif" font-size="14.00">LandingPageComponent</text>
</g>
<!-- LandingPageComponent&#45;&gt;AppRoutingModule -->
<g id="edge2" class="edge"><title>LandingPageComponent&#45;&gt;AppRoutingModule</title>
<path fill="none" stroke="black" d="M102,-198.198C102,-222.356 102,-262 102,-262 102,-262 379.438,-262 379.438,-262"/>
<polygon fill="black" stroke="black" points="379.438,-265.5 389.438,-262 379.438,-258.5 379.438,-265.5"/>
</g>
<!-- RouterModule  -->
<g id="node6" class="node"><title>RouterModule </title>
<polygon fill="#fb8072" stroke="black" points="565.652,-342 464.348,-342 464.348,-306 565.652,-306 565.652,-342"/>
<text text-anchor="middle" x="515" y="-319.8" font-family="Times,serif" font-size="14.00">RouterModule </text>
</g>
<!-- AppRoutingModule&#45;&gt;RouterModule  -->
<g id="edge5" class="edge"><title>AppRoutingModule&#45;&gt;RouterModule </title>
<path fill="none" stroke="black" stroke-dasharray="5,2" d="M491.406,-274.223C491.406,-274.223 491.406,-295.727 491.406,-295.727"/>
<polygon fill="black" stroke="black" points="487.906,-295.727 491.406,-305.727 494.906,-295.727 487.906,-295.727"/>
</g>
<!-- AppModule -->
<g id="node8" class="node"><title>AppModule</title>
<polygon fill="#8dd3c7" stroke="black" points="1095.66,-342 1092.66,-346 1071.66,-346 1068.66,-342 1012.34,-342 1012.34,-306 1095.66,-306 1095.66,-342"/>
<text text-anchor="middle" x="1054" y="-319.8" font-family="Times,serif" font-size="14.00">AppModule</text>
</g>
<!-- AppRoutingModule&#45;&gt;AppModule -->
<g id="edge9" class="edge"><title>AppRoutingModule&#45;&gt;AppModule</title>
<path fill="none" stroke="black" d="M518.423,-262C551.915,-262 585.939,-262 585.939,-262 585.939,-262 585.939,-335 585.939,-335 585.939,-335 1002.05,-335 1002.05,-335"/>
<polygon fill="black" stroke="black" points="1002.05,-338.5 1012.05,-335 1002.05,-331.5 1002.05,-338.5"/>
</g>
<!-- FormsModule -->
<g id="node4" class="node"><title>FormsModule</title>
<polygon fill="#8dd3c7" stroke="black" points="626.829,-198 623.829,-202 602.829,-202 599.829,-198 531.171,-198 531.171,-162 626.829,-162 626.829,-198"/>
<text text-anchor="middle" x="579" y="-175.8" font-family="Times,serif" font-size="14.00">FormsModule</text>
</g>
<!-- FormsModule&#45;&gt;AppRoutingModule -->
<g id="edge3" class="edge"><title>FormsModule&#45;&gt;AppRoutingModule</title>
<path fill="none" stroke="black" d="M548.456,-198.027C548.456,-218.767 548.456,-250 548.456,-250 548.456,-250 528.31,-250 528.31,-250"/>
<polygon fill="black" stroke="black" points="528.31,-246.5 518.31,-250 528.31,-253.5 528.31,-246.5"/>
</g>
<!-- DashboardModule -->
<g id="node11" class="node"><title>DashboardModule</title>
<polygon fill="#8dd3c7" stroke="black" points="1176.19,-274 1173.19,-278 1152.19,-278 1149.19,-274 1055.81,-274 1055.81,-238 1176.19,-238 1176.19,-274"/>
<text text-anchor="middle" x="1116" y="-251.8" font-family="Times,serif" font-size="14.00">DashboardModule</text>
</g>
<!-- FormsModule&#45;&gt;DashboardModule -->
<g id="edge41" class="edge"><title>FormsModule&#45;&gt;DashboardModule</title>
<path fill="none" stroke="black" d="M606.301,-198.027C606.301,-214.398 606.301,-236 606.301,-236 606.301,-236 1060.2,-236 1060.2,-236 1060.2,-236 1060.2,-236.185 1060.2,-236.185"/>
<polygon fill="black" stroke="black" points="1056.7,-227.845 1060.2,-237.846 1063.7,-227.846 1056.7,-227.845"/>
</g>
<!-- RouterModule.forRoot(args) -->
<g id="node5" class="node"><title>RouterModule.forRoot(args)</title>
<polygon fill="#8dd3c7" stroke="black" points="513.842,-198 510.842,-202 489.842,-202 486.842,-198 336.158,-198 336.158,-162 513.842,-162 513.842,-198"/>
<text text-anchor="middle" x="425" y="-175.8" font-family="Times,serif" font-size="14.00">RouterModule.forRoot(args)</text>
</g>
<!-- RouterModule.forRoot(args)&#45;&gt;AppRoutingModule -->
<g id="edge4" class="edge"><title>RouterModule.forRoot(args)&#45;&gt;AppRoutingModule</title>
<path fill="none" stroke="black" d="M451.642,-198.011C451.642,-198.011 451.642,-227.855 451.642,-227.855"/>
<polygon fill="black" stroke="black" points="448.142,-227.855 451.642,-237.855 455.142,-227.855 448.142,-227.855"/>
</g>
<!-- AppComponent -->
<g id="node7" class="node"><title>AppComponent</title>
<polygon fill="#ffffb3" stroke="black" points="1532.94,-274 1427.06,-274 1427.06,-238 1532.94,-238 1532.94,-274"/>
<text text-anchor="middle" x="1480" y="-251.8" font-family="Times,serif" font-size="14.00">AppComponent</text>
</g>
<!-- AppComponent&#45;&gt;AppModule -->
<g id="edge6" class="edge"><title>AppComponent&#45;&gt;AppModule</title>
<path fill="none" stroke="black" d="M1480,-274.248C1480,-297.018 1480,-333 1480,-333 1480,-333 1106.01,-333 1106.01,-333"/>
<polygon fill="black" stroke="black" points="1106.01,-329.5 1096.01,-333 1106.01,-336.5 1106.01,-329.5"/>
</g>
<!-- AppComponent  -->
<g id="node13" class="node"><title>AppComponent </title>
<polygon fill="#80b1d3" stroke="black" points="1108.44,-410 999.561,-410 999.561,-374 1108.44,-374 1108.44,-410"/>
<text text-anchor="middle" x="1054" y="-387.8" font-family="Times,serif" font-size="14.00">AppComponent </text>
</g>
<!-- AppModule&#45;&gt;AppComponent  -->
<g id="edge12" class="edge"><title>AppModule&#45;&gt;AppComponent </title>
<path fill="none" stroke="black" stroke-dasharray="1,5" d="M1054,-342.223C1054,-342.223 1054,-363.727 1054,-363.727"/>
<polygon fill="black" stroke="black" points="1050.5,-363.727 1054,-373.727 1057.5,-363.727 1050.5,-363.727"/>
</g>
<!-- BrowserModule -->
<g id="node9" class="node"><title>BrowserModule</title>
<polygon fill="#8dd3c7" stroke="black" points="1403.47,-274 1400.47,-278 1379.47,-278 1376.47,-274 1296.53,-274 1296.53,-238 1403.47,-238 1403.47,-274"/>
<text text-anchor="middle" x="1350" y="-251.8" font-family="Times,serif" font-size="14.00">BrowserModule</text>
</g>
<!-- BrowserModule&#45;&gt;AppModule -->
<g id="edge7" class="edge"><title>BrowserModule&#45;&gt;AppModule</title>
<path fill="none" stroke="black" d="M1350,-274.223C1350,-294.365 1350,-324 1350,-324 1350,-324 1105.78,-324 1105.78,-324"/>
<polygon fill="black" stroke="black" points="1105.78,-320.5 1095.78,-324 1105.78,-327.5 1105.78,-320.5"/>
</g>
<!-- HttpModule -->
<g id="node10" class="node"><title>HttpModule</title>
<polygon fill="#8dd3c7" stroke="black" points="1278.44,-274 1275.44,-278 1254.44,-278 1251.44,-274 1193.56,-274 1193.56,-238 1278.44,-238 1278.44,-274"/>
<text text-anchor="middle" x="1236" y="-251.8" font-family="Times,serif" font-size="14.00">HttpModule</text>
</g>
<!-- HttpModule&#45;&gt;AppModule -->
<g id="edge8" class="edge"><title>HttpModule&#45;&gt;AppModule</title>
<path fill="none" stroke="black" d="M1236,-274.023C1236,-291.373 1236,-315 1236,-315 1236,-315 1105.75,-315 1105.75,-315"/>
<polygon fill="black" stroke="black" points="1105.75,-311.5 1095.75,-315 1105.75,-318.5 1105.75,-311.5"/>
</g>
<!-- DashboardModule&#45;&gt;AppModule -->
<g id="edge10" class="edge"><title>DashboardModule&#45;&gt;AppModule</title>
<path fill="none" stroke="black" d="M1075.87,-274.223C1075.87,-274.223 1075.87,-295.727 1075.87,-295.727"/>
<polygon fill="black" stroke="black" points="1072.37,-295.727 1075.87,-305.727 1079.37,-295.727 1072.37,-295.727"/>
</g>
<!-- ToastModule -->
<g id="node12" class="node"><title>ToastModule</title>
<polygon fill="#8dd3c7" stroke="black" points="1038.15,-274 1035.15,-278 1014.15,-278 1011.15,-274 947.847,-274 947.847,-238 1038.15,-238 1038.15,-274"/>
<text text-anchor="middle" x="993" y="-251.8" font-family="Times,serif" font-size="14.00">ToastModule</text>
</g>
<!-- ToastModule&#45;&gt;AppModule -->
<g id="edge11" class="edge"><title>ToastModule&#45;&gt;AppModule</title>
<path fill="none" stroke="black" d="M1025.25,-274.223C1025.25,-274.223 1025.25,-295.727 1025.25,-295.727"/>
<polygon fill="black" stroke="black" points="1021.75,-295.727 1025.25,-305.727 1028.75,-295.727 1021.75,-295.727"/>
</g>
<!-- AuthService -->
<g id="node14" class="node"><title>AuthService</title>
<ellipse fill="#fdb462" stroke="black" cx="865" cy="-256" rx="59.1083" ry="18"/>
<text text-anchor="middle" x="865" y="-251.8" font-family="Times,serif" font-size="14.00">AuthService</text>
</g>
<!-- AuthService&#45;&gt;AppModule -->
<g id="edge13" class="edge"><title>AuthService&#45;&gt;AppModule</title>
<path fill="none" stroke="black" d="M865,-274.106C865,-293.339 865,-321 865,-321 865,-321 1002.05,-321 1002.05,-321"/>
<polygon fill="black" stroke="black" points="1002.05,-324.5 1012.05,-321 1002.05,-317.5 1002.05,-324.5"/>
</g>
<!-- ErrorService -->
<g id="node15" class="node"><title>ErrorService</title>
<ellipse fill="#fdb462" stroke="black" cx="727" cy="-256" rx="60.2287" ry="18"/>
<text text-anchor="middle" x="727" y="-251.8" font-family="Times,serif" font-size="14.00">ErrorService</text>
</g>
<!-- ErrorService&#45;&gt;AppModule -->
<g id="edge14" class="edge"><title>ErrorService&#45;&gt;AppModule</title>
<path fill="none" stroke="black" d="M727,-274.169C727,-295.498 727,-328 727,-328 727,-328 1002.25,-328 1002.25,-328"/>
<polygon fill="black" stroke="black" points="1002.25,-331.5 1012.25,-328 1002.25,-324.5 1002.25,-331.5"/>
</g>
<!-- RouterModule.forChild(args) -->
<g id="node16" class="node"><title>RouterModule.forChild(args)</title>
<polygon fill="#8dd3c7" stroke="black" points="1027.73,-122 1024.73,-126 1003.73,-126 1000.73,-122 846.268,-122 846.268,-86 1027.73,-86 1027.73,-122"/>
<text text-anchor="middle" x="937" y="-99.8" font-family="Times,serif" font-size="14.00">RouterModule.forChild(args)</text>
</g>
<!-- DashboardRoutingModule -->
<g id="node17" class="node"><title>DashboardRoutingModule</title>
<polygon fill="#8dd3c7" stroke="black" points="1019.81,-198 1016.81,-202 995.809,-202 992.809,-198 854.191,-198 854.191,-162 1019.81,-162 1019.81,-198"/>
<text text-anchor="middle" x="937" y="-175.8" font-family="Times,serif" font-size="14.00">DashboardRoutingModule</text>
</g>
<!-- RouterModule.forChild(args)&#45;&gt;DashboardRoutingModule -->
<g id="edge15" class="edge"><title>RouterModule.forChild(args)&#45;&gt;DashboardRoutingModule</title>
<path fill="none" stroke="black" d="M937,-122.011C937,-122.011 937,-151.855 937,-151.855"/>
<polygon fill="black" stroke="black" points="933.5,-151.855 937,-161.855 940.5,-151.855 933.5,-151.855"/>
</g>
<!-- DashboardRoutingModule&#45;&gt;RouterModule  -->
<g id="edge16" class="edge"><title>DashboardRoutingModule&#45;&gt;RouterModule </title>
<path fill="none" stroke="black" stroke-dasharray="5,2" d="M935.989,-198.072C935.989,-234.648 935.989,-314 935.989,-314 935.989,-314 575.781,-314 575.781,-314"/>
<polygon fill="black" stroke="black" points="575.781,-310.5 565.781,-314 575.781,-317.5 575.781,-310.5"/>
</g>
<!-- DashboardRoutingModule&#45;&gt;DashboardModule -->
<g id="edge43" class="edge"><title>DashboardRoutingModule&#45;&gt;DashboardModule</title>
<path fill="none" stroke="black" d="M1019.9,-186C1044.25,-186 1064.49,-186 1064.49,-186 1064.49,-186 1064.49,-227.973 1064.49,-227.973"/>
<polygon fill="black" stroke="black" points="1060.99,-227.973 1064.49,-237.973 1067.99,-227.973 1060.99,-227.973"/>
</g>
<!-- DashboardComponent -->
<g id="node18" class="node"><title>DashboardComponent</title>
<polygon fill="#ffffb3" stroke="black" points="8729.97,-198 8588.03,-198 8588.03,-162 8729.97,-162 8729.97,-198"/>
<text text-anchor="middle" x="8659" y="-175.8" font-family="Times,serif" font-size="14.00">DashboardComponent</text>
</g>
<!-- DashboardComponent&#45;&gt;DashboardModule -->
<g id="edge17" class="edge"><title>DashboardComponent&#45;&gt;DashboardModule</title>
<path fill="none" stroke="black" d="M8608.7,-161.89C8608.7,-152.103 8608.7,-142 8608.7,-142 8608.7,-142 1081.66,-142 1081.66,-142 1081.66,-142 1081.66,-227.936 1081.66,-227.936"/>
<polygon fill="black" stroke="black" points="1078.16,-227.936 1081.66,-237.936 1085.16,-227.936 1078.16,-227.936"/>
</g>
<!-- DashboardAdminComponent -->
<g id="node19" class="node"><title>DashboardAdminComponent</title>
<polygon fill="#ffffb3" stroke="black" points="8570.36,-198 8389.64,-198 8389.64,-162 8570.36,-162 8570.36,-198"/>
<text text-anchor="middle" x="8480" y="-175.8" font-family="Times,serif" font-size="14.00">DashboardAdminComponent</text>
</g>
<!-- DashboardAdminComponent&#45;&gt;DashboardModule -->
<g id="edge18" class="edge"><title>DashboardAdminComponent&#45;&gt;DashboardModule</title>
<path fill="none" stroke="black" d="M8393.59,-161.578C8393.59,-152.721 8393.59,-144 8393.59,-144 8393.59,-144 1085.95,-144 1085.95,-144 1085.95,-144 1085.95,-227.505 1085.95,-227.505"/>
<polygon fill="black" stroke="black" points="1082.45,-227.505 1085.95,-237.505 1089.45,-227.506 1082.45,-227.505"/>
</g>
<!-- DashboardHomeComponent -->
<g id="node20" class="node"><title>DashboardHomeComponent</title>
<polygon fill="#ffffb3" stroke="black" points="8371.19,-198 8194.81,-198 8194.81,-162 8371.19,-162 8371.19,-198"/>
<text text-anchor="middle" x="8283" y="-175.8" font-family="Times,serif" font-size="14.00">DashboardHomeComponent</text>
</g>
<!-- DashboardHomeComponent&#45;&gt;DashboardModule -->
<g id="edge19" class="edge"><title>DashboardHomeComponent&#45;&gt;DashboardModule</title>
<path fill="none" stroke="black" d="M8283,-198.179C8283,-231.279 8283,-298 8283,-298 8283,-298 1121.15,-298 1121.15,-298 1121.15,-298 1121.15,-284.056 1121.15,-284.056"/>
<polygon fill="black" stroke="black" points="1124.65,-284.055 1121.15,-274.056 1117.65,-284.056 1124.65,-284.055"/>
</g>
<!-- DashboardHomeView1Component -->
<g id="node21" class="node"><title>DashboardHomeView1Component</title>
<polygon fill="#ffffb3" stroke="black" points="8176.5,-198 7963.5,-198 7963.5,-162 8176.5,-162 8176.5,-198"/>
<text text-anchor="middle" x="8070" y="-175.8" font-family="Times,serif" font-size="14.00">DashboardHomeView1Component</text>
</g>
<!-- DashboardHomeView1Component&#45;&gt;DashboardModule -->
<g id="edge20" class="edge"><title>DashboardHomeView1Component&#45;&gt;DashboardModule</title>
<path fill="none" stroke="black" d="M7981.88,-161.806C7981.88,-153.722 7981.88,-146 7981.88,-146 7981.88,-146 1090.24,-146 1090.24,-146 1090.24,-146 1090.24,-227.836 1090.24,-227.836"/>
<polygon fill="black" stroke="black" points="1086.74,-227.836 1090.24,-237.836 1093.74,-227.836 1086.74,-227.836"/>
</g>
<!-- DashboardHomeView2Component -->
<g id="node22" class="node"><title>DashboardHomeView2Component</title>
<polygon fill="#ffffb3" stroke="black" points="7944.5,-198 7731.5,-198 7731.5,-162 7944.5,-162 7944.5,-198"/>
<text text-anchor="middle" x="7838" y="-175.8" font-family="Times,serif" font-size="14.00">DashboardHomeView2Component</text>
</g>
<!-- DashboardHomeView2Component&#45;&gt;DashboardModule -->
<g id="edge21" class="edge"><title>DashboardHomeView2Component&#45;&gt;DashboardModule</title>
<path fill="none" stroke="black" d="M7751.6,-161.757C7751.6,-154.57 7751.6,-148 7751.6,-148 7751.6,-148 1094.54,-148 1094.54,-148 1094.54,-148 1094.54,-227.679 1094.54,-227.679"/>
<polygon fill="black" stroke="black" points="1091.04,-227.679 1094.54,-237.679 1098.04,-227.679 1091.04,-227.679"/>
</g>
<!-- SidebarComponent -->
<g id="node23" class="node"><title>SidebarComponent</title>
<polygon fill="#ffffb3" stroke="black" points="7713.1,-198 7588.9,-198 7588.9,-162 7713.1,-162 7713.1,-198"/>
<text text-anchor="middle" x="7651" y="-175.8" font-family="Times,serif" font-size="14.00">SidebarComponent</text>
</g>
<!-- SidebarComponent&#45;&gt;DashboardModule -->
<g id="edge22" class="edge"><title>SidebarComponent&#45;&gt;DashboardModule</title>
<path fill="none" stroke="black" d="M7594.32,-161.857C7594.32,-155.539 7594.32,-150 7594.32,-150 7594.32,-150 1098.83,-150 1098.83,-150 1098.83,-150 1098.83,-227.536 1098.83,-227.536"/>
<polygon fill="black" stroke="black" points="1095.33,-227.536 1098.83,-237.536 1102.33,-227.536 1095.33,-227.536"/>
</g>
<!-- NavbarComponent -->
<g id="node24" class="node"><title>NavbarComponent</title>
<polygon fill="#ffffb3" stroke="black" points="7571.03,-198 7448.97,-198 7448.97,-162 7571.03,-162 7571.03,-198"/>
<text text-anchor="middle" x="7510" y="-175.8" font-family="Times,serif" font-size="14.00">NavbarComponent</text>
</g>
<!-- NavbarComponent&#45;&gt;DashboardModule -->
<g id="edge23" class="edge"><title>NavbarComponent&#45;&gt;DashboardModule</title>
<path fill="none" stroke="black" d="M7510,-198.125C7510,-230.75 7510,-296 7510,-296 7510,-296 1125.38,-296 1125.38,-296 1125.38,-296 1125.38,-284.127 1125.38,-284.127"/>
<polygon fill="black" stroke="black" points="1128.88,-284.127 1125.38,-274.127 1121.88,-284.127 1128.88,-284.127"/>
</g>
<!-- DashboardDataRidersComponent -->
<g id="node25" class="node"><title>DashboardDataRidersComponent</title>
<polygon fill="#ffffb3" stroke="black" points="7430.45,-198 7225.55,-198 7225.55,-162 7430.45,-162 7430.45,-198"/>
<text text-anchor="middle" x="7328" y="-175.8" font-family="Times,serif" font-size="14.00">DashboardDataRidersComponent</text>
</g>
<!-- DashboardDataRidersComponent&#45;&gt;DashboardModule -->
<g id="edge24" class="edge"><title>DashboardDataRidersComponent&#45;&gt;DashboardModule</title>
<path fill="none" stroke="black" d="M7328,-198.064C7328,-230.209 7328,-294 7328,-294 7328,-294 1129.6,-294 1129.6,-294 1129.6,-294 1129.6,-284.11 1129.6,-284.11"/>
<polygon fill="black" stroke="black" points="1133.1,-284.11 1129.6,-274.11 1126.1,-284.11 1133.1,-284.11"/>
</g>
<!-- DashboardDataTransactionsComponent -->
<g id="node26" class="node"><title>DashboardDataTransactionsComponent</title>
<polygon fill="#ffffb3" stroke="black" points="7207.93,-198 6968.07,-198 6968.07,-162 7207.93,-162 7207.93,-198"/>
<text text-anchor="middle" x="7088" y="-175.8" font-family="Times,serif" font-size="14.00">DashboardDataTransactionsComponent</text>
</g>
<!-- DashboardDataTransactionsComponent&#45;&gt;DashboardModule -->
<g id="edge25" class="edge"><title>DashboardDataTransactionsComponent&#45;&gt;DashboardModule</title>
<path fill="none" stroke="black" d="M7088,-198.495C7088,-230.306 7088,-292 7088,-292 7088,-292 1133.83,-292 1133.83,-292 1133.83,-292 1133.83,-284.422 1133.83,-284.422"/>
<polygon fill="black" stroke="black" points="1137.33,-284.422 1133.83,-274.422 1130.33,-284.422 1137.33,-284.422"/>
</g>
<!-- DashboardDataPassesComponent -->
<g id="node27" class="node"><title>DashboardDataPassesComponent</title>
<polygon fill="#ffffb3" stroke="black" points="6950.45,-198 6745.55,-198 6745.55,-162 6950.45,-162 6950.45,-198"/>
<text text-anchor="middle" x="6848" y="-175.8" font-family="Times,serif" font-size="14.00">DashboardDataPassesComponent</text>
</g>
<!-- DashboardDataPassesComponent&#45;&gt;DashboardModule -->
<g id="edge26" class="edge"><title>DashboardDataPassesComponent&#45;&gt;DashboardModule</title>
<path fill="none" stroke="black" d="M6848,-198.164C6848,-229.407 6848,-290 6848,-290 6848,-290 1138.06,-290 1138.06,-290 1138.06,-290 1138.06,-284.194 1138.06,-284.194"/>
<polygon fill="black" stroke="black" points="1141.56,-284.194 1138.06,-274.194 1134.56,-284.194 1141.56,-284.194"/>
</g>
<!-- DashboardToastComponent -->
<g id="node28" class="node"><title>DashboardToastComponent</title>
<polygon fill="#ffffb3" stroke="black" points="6727.58,-198 6554.42,-198 6554.42,-162 6727.58,-162 6727.58,-198"/>
<text text-anchor="middle" x="6641" y="-175.8" font-family="Times,serif" font-size="14.00">DashboardToastComponent</text>
</g>
<!-- DashboardToastComponent&#45;&gt;DashboardModule -->
<g id="edge27" class="edge"><title>DashboardToastComponent&#45;&gt;DashboardModule</title>
<path fill="none" stroke="black" d="M6641,-198.49C6641,-229.589 6641,-289 6641,-289 6641,-289 1142.28,-289 1142.28,-289 1142.28,-289 1142.28,-284.045 1142.28,-284.045"/>
<polygon fill="black" stroke="black" points="1145.78,-284.045 1142.28,-274.045 1138.78,-284.045 1145.78,-284.045"/>
</g>
<!-- DashboardTypeaheadComponent -->
<g id="node29" class="node"><title>DashboardTypeaheadComponent</title>
<polygon fill="#ffffb3" stroke="black" points="6536.88,-198 6333.12,-198 6333.12,-162 6536.88,-162 6536.88,-198"/>
<text text-anchor="middle" x="6435" y="-175.8" font-family="Times,serif" font-size="14.00">DashboardTypeaheadComponent</text>
</g>
<!-- DashboardTypeaheadComponent&#45;&gt;DashboardModule -->
<g id="edge28" class="edge"><title>DashboardTypeaheadComponent&#45;&gt;DashboardModule</title>
<path fill="none" stroke="black" d="M6435,-198.151C6435,-228.679 6435,-287 6435,-287 6435,-287 1146.51,-287 1146.51,-287 1146.51,-287 1146.51,-284.033 1146.51,-284.033"/>
<polygon fill="black" stroke="black" points="1150.01,-284.033 1146.51,-274.033 1143.01,-284.033 1150.01,-284.033"/>
</g>
<!-- TypeaheadComponent -->
<g id="node30" class="node"><title>TypeaheadComponent</title>
<polygon fill="#ffffb3" stroke="black" points="6315.24,-198 6172.76,-198 6172.76,-162 6315.24,-162 6315.24,-198"/>
<text text-anchor="middle" x="6244" y="-175.8" font-family="Times,serif" font-size="14.00">TypeaheadComponent</text>
</g>
<!-- TypeaheadComponent&#45;&gt;DashboardModule -->
<g id="edge29" class="edge"><title>TypeaheadComponent&#45;&gt;DashboardModule</title>
<path fill="none" stroke="black" d="M6244,-198.29C6244,-228.373 6244,-285 6244,-285 6244,-285 1150.74,-285 1150.74,-285 1150.74,-285 1150.74,-283.92 1150.74,-283.92"/>
<polygon fill="black" stroke="black" points="1154.24,-284.201 1150.74,-274.201 1147.24,-284.202 1154.24,-284.201"/>
</g>
<!-- DashboardFormsComponent -->
<g id="node31" class="node"><title>DashboardFormsComponent</title>
<polygon fill="#ffffb3" stroke="black" points="6154.75,-198 5977.25,-198 5977.25,-162 6154.75,-162 6154.75,-198"/>
<text text-anchor="middle" x="6066" y="-175.8" font-family="Times,serif" font-size="14.00">DashboardFormsComponent</text>
</g>
<!-- DashboardFormsComponent&#45;&gt;DashboardModule -->
<g id="edge30" class="edge"><title>DashboardFormsComponent&#45;&gt;DashboardModule</title>
<path fill="none" stroke="black" d="M6066,-198.414C6066,-228.041 6066,-283 6066,-283 6066,-283 1154.96,-283 1154.96,-283 1154.96,-283 1154.96,-282.116 1154.96,-282.116"/>
<polygon fill="black" stroke="black" points="1158.46,-284.159 1154.96,-274.159 1151.46,-284.159 1158.46,-284.159"/>
</g>
<!-- LoadingIndicatorComponent -->
<g id="node32" class="node"><title>LoadingIndicatorComponent</title>
<polygon fill="#ffffb3" stroke="black" points="5959.02,-198 5780.98,-198 5780.98,-162 5959.02,-162 5959.02,-198"/>
<text text-anchor="middle" x="5870" y="-175.8" font-family="Times,serif" font-size="14.00">LoadingIndicatorComponent</text>
</g>
<!-- LoadingIndicatorComponent&#45;&gt;DashboardModule -->
<g id="edge31" class="edge"><title>LoadingIndicatorComponent&#45;&gt;DashboardModule</title>
<path fill="none" stroke="black" d="M5870,-198.236C5870,-227.574 5870,-282 5870,-282 5870,-282 1159.19,-282 1159.19,-282 1159.19,-282 1159.19,-281.206 1159.19,-281.206"/>
<polygon fill="black" stroke="black" points="1162.69,-284.058 1159.19,-274.058 1155.69,-284.058 1162.69,-284.058"/>
</g>
<!-- DashboardLoadingIndicatorComponent -->
<g id="node33" class="node"><title>DashboardLoadingIndicatorComponent</title>
<polygon fill="#ffffb3" stroke="black" points="5762.66,-198 5523.34,-198 5523.34,-162 5762.66,-162 5762.66,-198"/>
<text text-anchor="middle" x="5643" y="-175.8" font-family="Times,serif" font-size="14.00">DashboardLoadingIndicatorComponent</text>
</g>
<!-- DashboardLoadingIndicatorComponent&#45;&gt;DashboardModule -->
<g id="edge32" class="edge"><title>DashboardLoadingIndicatorComponent&#45;&gt;DashboardModule</title>
<path fill="none" stroke="black" d="M5643,-198.342C5643,-227.211 5643,-280 5643,-280 5643,-280 1163.42,-280 1163.42,-280 1163.42,-280 1163.42,-279.419 1163.42,-279.419"/>
<polygon fill="black" stroke="black" points="1166.92,-284.19 1163.42,-274.19 1159.92,-284.19 1166.92,-284.19"/>
</g>
<!-- DashboardModalComponent -->
<g id="node34" class="node"><title>DashboardModalComponent</title>
<polygon fill="#ffffb3" stroke="black" points="5505.02,-198 5326.98,-198 5326.98,-162 5505.02,-162 5505.02,-198"/>
<text text-anchor="middle" x="5416" y="-175.8" font-family="Times,serif" font-size="14.00">DashboardModalComponent</text>
</g>
<!-- DashboardModalComponent&#45;&gt;DashboardModule -->
<g id="edge33" class="edge"><title>DashboardModalComponent&#45;&gt;DashboardModule</title>
<path fill="none" stroke="black" d="M5416,-198.433C5416,-226.821 5416,-278 5416,-278 5416,-278 1167.64,-278 1167.64,-278 1167.64,-278 1167.64,-277.617 1167.64,-277.617"/>
<polygon fill="black" stroke="black" points="1171.14,-284.168 1167.64,-274.168 1164.14,-284.168 1171.14,-284.168"/>
</g>
<!-- BasicModalComponent -->
<g id="node35" class="node"><title>BasicModalComponent</title>
<polygon fill="#ffffb3" stroke="black" points="5308.48,-198 5159.52,-198 5159.52,-162 5308.48,-162 5308.48,-198"/>
<text text-anchor="middle" x="5234" y="-175.8" font-family="Times,serif" font-size="14.00">BasicModalComponent</text>
</g>
<!-- BasicModalComponent&#45;&gt;DashboardModule -->
<g id="edge34" class="edge"><title>BasicModalComponent&#45;&gt;DashboardModule</title>
<path fill="none" stroke="black" d="M5234,-198.057C5234,-225.866 5234,-276 5234,-276 5234,-276 1171.87,-276 1171.87,-276 1171.87,-276 1171.87,-275.815 1171.87,-275.815"/>
<polygon fill="black" stroke="black" points="1175.37,-284.154 1171.87,-274.154 1168.37,-284.155 1175.37,-284.154"/>
</g>
<!-- RoutedModalComponent -->
<g id="node36" class="node"><title>RoutedModalComponent</title>
<polygon fill="#ffffb3" stroke="black" points="5141.32,-198 4982.68,-198 4982.68,-162 5141.32,-162 5141.32,-198"/>
<text text-anchor="middle" x="5062" y="-175.8" font-family="Times,serif" font-size="14.00">RoutedModalComponent</text>
</g>
<!-- RoutedModalComponent&#45;&gt;DashboardModule -->
<g id="edge35" class="edge"><title>RoutedModalComponent&#45;&gt;DashboardModule</title>
<path fill="none" stroke="black" d="M5062,-198.187C5062,-213.182 5062,-232 5062,-232 5062,-232 1171.8,-232 1171.8,-232 1171.8,-232 1171.8,-232.581 1171.8,-232.581"/>
<polygon fill="black" stroke="black" points="1168.3,-227.81 1171.8,-237.81 1175.3,-227.81 1168.3,-227.81"/>
</g>
<!-- InputsModalComponent -->
<g id="node37" class="node"><title>InputsModalComponent</title>
<polygon fill="#ffffb3" stroke="black" points="4964.38,-198 4811.62,-198 4811.62,-162 4964.38,-162 4964.38,-198"/>
<text text-anchor="middle" x="4888" y="-175.8" font-family="Times,serif" font-size="14.00">InputsModalComponent</text>
</g>
<!-- InputsModalComponent&#45;&gt;DashboardModule -->
<g id="edge36" class="edge"><title>InputsModalComponent&#45;&gt;DashboardModule</title>
<path fill="none" stroke="black" d="M4888,-198.051C4888,-212.373 4888,-230 4888,-230 4888,-230 1167.51,-230 1167.51,-230 1167.51,-230 1167.51,-230.794 1167.51,-230.794"/>
<polygon fill="black" stroke="black" points="1164.01,-227.942 1167.51,-237.942 1171.01,-227.942 1164.01,-227.942"/>
</g>
<!-- DashboardDatepickerComponent -->
<g id="node38" class="node"><title>DashboardDatepickerComponent</title>
<polygon fill="#ffffb3" stroke="black" points="4793.88,-198 4590.12,-198 4590.12,-162 4793.88,-162 4793.88,-198"/>
<text text-anchor="middle" x="4692" y="-175.8" font-family="Times,serif" font-size="14.00">DashboardDatepickerComponent</text>
</g>
<!-- DashboardDatepickerComponent&#45;&gt;DashboardModule -->
<g id="edge37" class="edge"><title>DashboardDatepickerComponent&#45;&gt;DashboardModule</title>
<path fill="none" stroke="black" d="M4692,-198.147C4692,-211.74 4692,-228 4692,-228 4692,-228 1163.22,-228 1163.22,-228 1163.22,-228 1163.22,-228.979 1163.22,-228.979"/>
<polygon fill="black" stroke="black" points="1159.72,-227.793 1163.22,-237.793 1166.72,-227.793 1159.72,-227.793"/>
</g>
<!-- DashboardWizardComponent -->
<g id="node39" class="node"><title>DashboardWizardComponent</title>
<polygon fill="#ffffb3" stroke="black" points="4572.67,-198 4389.33,-198 4389.33,-162 4572.67,-162 4572.67,-198"/>
<text text-anchor="middle" x="4481" y="-175.8" font-family="Times,serif" font-size="14.00">DashboardWizardComponent</text>
</g>
<!-- DashboardWizardComponent&#45;&gt;DashboardModule -->
<g id="edge38" class="edge"><title>DashboardWizardComponent&#45;&gt;DashboardModule</title>
<path fill="none" stroke="black" d="M4481,-198.18C4481,-211.038 4481,-226 4481,-226 4481,-226 1158.93,-226 1158.93,-226 1158.93,-226 1158.93,-227.857 1158.93,-227.857"/>
<polygon fill="black" stroke="black" points="1155.43,-227.857 1158.93,-237.857 1162.43,-227.857 1155.43,-227.857"/>
</g>
<!-- DashboardDragDropComponent -->
<g id="node40" class="node"><title>DashboardDragDropComponent</title>
<polygon fill="#ffffb3" stroke="black" points="4371.22,-198 4172.78,-198 4172.78,-162 4371.22,-162 4371.22,-198"/>
<text text-anchor="middle" x="4272" y="-175.8" font-family="Times,serif" font-size="14.00">DashboardDragDropComponent</text>
</g>
<!-- DashboardDragDropComponent&#45;&gt;DashboardModule -->
<g id="edge39" class="edge"><title>DashboardDragDropComponent&#45;&gt;DashboardModule</title>
<path fill="none" stroke="black" d="M4272,-198.151C4272,-210.271 4272,-224 4272,-224 4272,-224 1154.63,-224 1154.63,-224 1154.63,-224 1154.63,-227.757 1154.63,-227.757"/>
<polygon fill="black" stroke="black" points="1151.13,-227.757 1154.63,-237.757 1158.13,-227.757 1151.13,-227.757"/>
</g>
<!-- NotificationSidebarComponent -->
<g id="node41" class="node"><title>NotificationSidebarComponent</title>
<polygon fill="#ffffb3" stroke="black" points="4154.74,-198 3963.26,-198 3963.26,-162 4154.74,-162 4154.74,-198"/>
<text text-anchor="middle" x="4059" y="-175.8" font-family="Times,serif" font-size="14.00">NotificationSidebarComponent</text>
</g>
<!-- NotificationSidebarComponent&#45;&gt;DashboardModule -->
<g id="edge40" class="edge"><title>NotificationSidebarComponent&#45;&gt;DashboardModule</title>
<path fill="none" stroke="black" d="M4059,-198.056C4059,-209.439 4059,-222 4059,-222 4059,-222 1150.34,-222 1150.34,-222 1150.34,-222 1150.34,-227.806 1150.34,-227.806"/>
<polygon fill="black" stroke="black" points="1146.84,-227.806 1150.34,-237.806 1153.84,-227.806 1146.84,-227.806"/>
</g>
<!-- CommonModule -->
<g id="node42" class="node"><title>CommonModule</title>
<polygon fill="#8dd3c7" stroke="black" points="9698.67,-198 9695.67,-202 9674.67,-202 9671.67,-198 9587.33,-198 9587.33,-162 9698.67,-162 9698.67,-198"/>
<text text-anchor="middle" x="9643" y="-175.8" font-family="Times,serif" font-size="14.00">CommonModule</text>
</g>
<!-- CommonModule&#45;&gt;DashboardModule -->
<g id="edge42" class="edge"><title>CommonModule&#45;&gt;DashboardModule</title>
<path fill="none" stroke="black" d="M9592.9,-198.149C9592.9,-232.364 9592.9,-303 9592.9,-303 9592.9,-303 1104.26,-303 1104.26,-303 1104.26,-303 1104.26,-284.037 1104.26,-284.037"/>
<polygon fill="black" stroke="black" points="1107.76,-284.037 1104.26,-274.037 1100.76,-284.037 1107.76,-284.037"/>
</g>
<!-- WizardModule -->
<g id="node45" class="node"><title>WizardModule</title>
<polygon fill="#8dd3c7" stroke="black" points="9699.25,-274 9696.25,-278 9675.25,-278 9672.25,-274 9598.75,-274 9598.75,-238 9699.25,-238 9699.25,-274"/>
<text text-anchor="middle" x="9649" y="-251.8" font-family="Times,serif" font-size="14.00">WizardModule</text>
</g>
<!-- CommonModule&#45;&gt;WizardModule -->
<g id="edge74" class="edge"><title>CommonModule&#45;&gt;WizardModule</title>
<path fill="none" stroke="black" d="M9648.73,-198.011C9648.73,-198.011 9648.73,-227.855 9648.73,-227.855"/>
<polygon fill="black" stroke="black" points="9645.23,-227.855 9648.73,-237.855 9652.23,-227.855 9645.23,-227.855"/>
</g>
<!-- TextMaskModule -->
<g id="node43" class="node"><title>TextMaskModule</title>
<polygon fill="#8dd3c7" stroke="black" points="9345.31,-198 9342.31,-202 9321.31,-202 9318.31,-198 9228.69,-198 9228.69,-162 9345.31,-162 9345.31,-198"/>
<text text-anchor="middle" x="9287" y="-175.8" font-family="Times,serif" font-size="14.00">TextMaskModule</text>
</g>
<!-- TextMaskModule&#45;&gt;DashboardModule -->
<g id="edge44" class="edge"><title>TextMaskModule&#45;&gt;DashboardModule</title>
<path fill="none" stroke="black" d="M9287,-198.115C9287,-231.87 9287,-301 9287,-301 9287,-301 1112.7,-301 1112.7,-301 1112.7,-301 1112.7,-284.044 1112.7,-284.044"/>
<polygon fill="black" stroke="black" points="1116.2,-284.044 1112.7,-274.044 1109.2,-284.044 1116.2,-284.044"/>
</g>
<!-- NgbModalModule -->
<g id="node44" class="node"><title>NgbModalModule</title>
<polygon fill="#8dd3c7" stroke="black" points="9211.21,-198 9208.21,-202 9187.21,-202 9184.21,-198 9090.79,-198 9090.79,-162 9211.21,-162 9211.21,-198"/>
<text text-anchor="middle" x="9151" y="-175.8" font-family="Times,serif" font-size="14.00">NgbModalModule</text>
</g>
<!-- NgbModalModule&#45;&gt;DashboardModule -->
<g id="edge45" class="edge"><title>NgbModalModule&#45;&gt;DashboardModule</title>
<path fill="none" stroke="black" d="M9151,-198.074C9151,-231.363 9151,-299 9151,-299 9151,-299 1116.92,-299 1116.92,-299 1116.92,-299 1116.92,-284.485 1116.92,-284.485"/>
<polygon fill="black" stroke="black" points="1120.42,-284.485 1116.92,-274.485 1113.42,-284.485 1120.42,-284.485"/>
</g>
<!-- NgbModalContainer  -->
<g id="node85" class="node"><title>NgbModalContainer </title>
<polygon fill="#fb8072" stroke="black" points="9477.86,-122 9342.14,-122 9342.14,-86 9477.86,-86 9477.86,-122"/>
<text text-anchor="middle" x="9410" y="-99.8" font-family="Times,serif" font-size="14.00">NgbModalContainer </text>
</g>
<!-- NgbModalModule&#45;&gt;NgbModalContainer  -->
<g id="edge87" class="edge"><title>NgbModalModule&#45;&gt;NgbModalContainer </title>
<path fill="none" stroke="black" stroke-dasharray="5,2" d="M9204.52,-161.793C9204.52,-156.445 9204.52,-152 9204.52,-152 9204.52,-152 9354.15,-152 9354.15,-152 9354.15,-152 9354.15,-132.147 9354.15,-132.147"/>
<polygon fill="black" stroke="black" points="9357.65,-132.147 9354.15,-122.147 9350.65,-132.147 9357.65,-132.147"/>
</g>
<!-- WizardModule&#45;&gt;DashboardModule -->
<g id="edge46" class="edge"><title>WizardModule&#45;&gt;DashboardModule</title>
<path fill="none" stroke="black" d="M9649,-274.246C9649,-288.177 9649,-305 9649,-305 9649,-305 1100.04,-305 1100.04,-305 1100.04,-305 1100.04,-284.246 1100.04,-284.246"/>
<polygon fill="black" stroke="black" points="1103.54,-284.246 1100.04,-274.246 1096.54,-284.246 1103.54,-284.246"/>
</g>
<!-- WizardDirective  -->
<g id="node73" class="node"><title>WizardDirective </title>
<polygon fill="#fb8072" stroke="black" points="10756.3,-198 10643.7,-198 10643.7,-162 10756.3,-162 10756.3,-198"/>
<text text-anchor="middle" x="10700" y="-175.8" font-family="Times,serif" font-size="14.00">WizardDirective </text>
</g>
<!-- WizardModule&#45;&gt;WizardDirective  -->
<g id="edge75" class="edge"><title>WizardModule&#45;&gt;WizardDirective </title>
<path fill="none" stroke="black" stroke-dasharray="5,2" d="M9699.34,-256C9908.74,-256 10700,-256 10700,-256 10700,-256 10700,-208.011 10700,-208.011"/>
<polygon fill="black" stroke="black" points="10703.5,-208.011 10700,-198.011 10696.5,-208.011 10703.5,-208.011"/>
</g>
<!-- WizardStepsComponent  -->
<g id="node74" class="node"><title>WizardStepsComponent </title>
<polygon fill="#fb8072" stroke="black" points="10625.4,-198 10468.6,-198 10468.6,-162 10625.4,-162 10625.4,-198"/>
<text text-anchor="middle" x="10547" y="-175.8" font-family="Times,serif" font-size="14.00">WizardStepsComponent </text>
</g>
<!-- WizardModule&#45;&gt;WizardStepsComponent  -->
<g id="edge76" class="edge"><title>WizardModule&#45;&gt;WizardStepsComponent </title>
<path fill="none" stroke="black" stroke-dasharray="5,2" d="M9699.53,-253C9889.07,-253 10547,-253 10547,-253 10547,-253 10547,-208.045 10547,-208.045"/>
<polygon fill="black" stroke="black" points="10550.5,-208.045 10547,-198.045 10543.5,-208.045 10550.5,-208.045"/>
</g>
<!-- WizardStepDirective  -->
<g id="node75" class="node"><title>WizardStepDirective </title>
<polygon fill="#fb8072" stroke="black" points="10450.7,-198 10313.3,-198 10313.3,-162 10450.7,-162 10450.7,-198"/>
<text text-anchor="middle" x="10382" y="-175.8" font-family="Times,serif" font-size="14.00">WizardStepDirective </text>
</g>
<!-- WizardModule&#45;&gt;WizardStepDirective  -->
<g id="edge77" class="edge"><title>WizardModule&#45;&gt;WizardStepDirective </title>
<path fill="none" stroke="black" stroke-dasharray="5,2" d="M9699.38,-250C9864.99,-250 10382,-250 10382,-250 10382,-250 10382,-208.027 10382,-208.027"/>
<polygon fill="black" stroke="black" points="10385.5,-208.027 10382,-198.027 10378.5,-208.027 10385.5,-208.027"/>
</g>
<!-- WizardPreviousButtonDirective  -->
<g id="node76" class="node"><title>WizardPreviousButtonDirective </title>
<polygon fill="#fb8072" stroke="black" points="10294.9,-198 10095.1,-198 10095.1,-162 10294.9,-162 10294.9,-198"/>
<text text-anchor="middle" x="10195" y="-175.8" font-family="Times,serif" font-size="14.00">WizardPreviousButtonDirective </text>
</g>
<!-- WizardModule&#45;&gt;WizardPreviousButtonDirective  -->
<g id="edge78" class="edge"><title>WizardModule&#45;&gt;WizardPreviousButtonDirective </title>
<path fill="none" stroke="black" stroke-dasharray="5,2" d="M9699.39,-247C9834.55,-247 10195,-247 10195,-247 10195,-247 10195,-208.308 10195,-208.308"/>
<polygon fill="black" stroke="black" points="10198.5,-208.308 10195,-198.308 10191.5,-208.308 10198.5,-208.308"/>
</g>
<!-- WizardNextButtonDirective  -->
<g id="node77" class="node"><title>WizardNextButtonDirective </title>
<polygon fill="#fb8072" stroke="black" points="10077.1,-198 9898.89,-198 9898.89,-162 10077.1,-162 10077.1,-198"/>
<text text-anchor="middle" x="9988" y="-175.8" font-family="Times,serif" font-size="14.00">WizardNextButtonDirective </text>
</g>
<!-- WizardModule&#45;&gt;WizardNextButtonDirective  -->
<g id="edge79" class="edge"><title>WizardModule&#45;&gt;WizardNextButtonDirective </title>
<path fill="none" stroke="black" stroke-dasharray="5,2" d="M9699.39,-244C9793.82,-244 9988,-244 9988,-244 9988,-244 9988,-208.169 9988,-208.169"/>
<polygon fill="black" stroke="black" points="9991.5,-208.169 9988,-198.169 9984.5,-208.169 9991.5,-208.169"/>
</g>
<!-- BootstrapTourModule -->
<g id="node46" class="node"><title>BootstrapTourModule</title>
<polygon fill="#8dd3c7" stroke="black" points="8895.7,-198 8892.7,-202 8871.7,-202 8868.7,-198 8754.3,-198 8754.3,-162 8895.7,-162 8895.7,-198"/>
<text text-anchor="middle" x="8825" y="-175.8" font-family="Times,serif" font-size="14.00">BootstrapTourModule</text>
</g>
<!-- BootstrapTourModule&#45;&gt;DashboardModule -->
<g id="edge47" class="edge"><title>BootstrapTourModule&#45;&gt;DashboardModule</title>
<path fill="none" stroke="black" d="M8760.39,-161.873C8760.39,-151.289 8760.39,-140 8760.39,-140 8760.39,-140 1077.37,-140 1077.37,-140 1077.37,-140 1077.37,-227.875 1077.37,-227.875"/>
<polygon fill="black" stroke="black" points="1073.87,-227.875 1077.37,-237.875 1080.87,-227.875 1073.87,-227.875"/>
</g>
<!-- BootstrapTourDirective  -->
<g id="node61" class="node"><title>BootstrapTourDirective </title>
<polygon fill="#fb8072" stroke="black" points="7969.73,-122 7816.27,-122 7816.27,-86 7969.73,-86 7969.73,-122"/>
<text text-anchor="middle" x="7893" y="-99.8" font-family="Times,serif" font-size="14.00">BootstrapTourDirective </text>
</g>
<!-- BootstrapTourModule&#45;&gt;BootstrapTourDirective  -->
<g id="edge62" class="edge"><title>BootstrapTourModule&#45;&gt;BootstrapTourDirective </title>
<path fill="none" stroke="black" stroke-dasharray="5,2" d="M8772.37,-161.849C8772.37,-149.729 8772.37,-136 8772.37,-136 8772.37,-136 7954,-136 7954,-136 7954,-136 7954,-132.243 7954,-132.243"/>
<polygon fill="black" stroke="black" points="7957.5,-132.243 7954,-122.243 7950.5,-132.243 7957.5,-132.243"/>
</g>
<!-- CtsAppDragDropModule -->
<g id="node47" class="node"><title>CtsAppDragDropModule</title>
<polygon fill="#8dd3c7" stroke="black" points="9072.58,-198 9069.58,-202 9048.58,-202 9045.58,-198 8913.42,-198 8913.42,-162 9072.58,-162 9072.58,-198"/>
<text text-anchor="middle" x="8993" y="-175.8" font-family="Times,serif" font-size="14.00">CtsAppDragDropModule</text>
</g>
<!-- CtsAppDragDropModule&#45;&gt;DashboardModule -->
<g id="edge48" class="edge"><title>CtsAppDragDropModule&#45;&gt;DashboardModule</title>
<path fill="none" stroke="black" d="M8925.21,-161.853C8925.21,-148.26 8925.21,-132 8925.21,-132 8925.21,-132 1073.07,-132 1073.07,-132 1073.07,-132 1073.07,-227.969 1073.07,-227.969"/>
<polygon fill="black" stroke="black" points="1069.57,-227.969 1073.07,-237.969 1076.57,-227.969 1069.57,-227.969"/>
</g>
<!-- CtsAppDraggableDirective  -->
<g id="node65" class="node"><title>CtsAppDraggableDirective </title>
<polygon fill="#fb8072" stroke="black" points="8790.16,-122 8617.84,-122 8617.84,-86 8790.16,-86 8790.16,-122"/>
<text text-anchor="middle" x="8704" y="-99.8" font-family="Times,serif" font-size="14.00">CtsAppDraggableDirective </text>
</g>
<!-- CtsAppDragDropModule&#45;&gt;CtsAppDraggableDirective  -->
<g id="edge66" class="edge"><title>CtsAppDragDropModule&#45;&gt;CtsAppDraggableDirective </title>
<path fill="none" stroke="black" stroke-dasharray="5,2" d="M8960.47,-161.718C8960.47,-146.052 8960.47,-126 8960.47,-126 8960.47,-126 8784.34,-126 8784.34,-126 8784.34,-126 8784.34,-125.617 8784.34,-125.617"/>
<polygon fill="black" stroke="black" points="8787.84,-132.168 8784.34,-122.168 8780.84,-132.168 8787.84,-132.168"/>
</g>
<!-- CtsAppDroppableDirective  -->
<g id="node66" class="node"><title>CtsAppDroppableDirective </title>
<polygon fill="#fb8072" stroke="black" points="8599.95,-122 8426.05,-122 8426.05,-86 8599.95,-86 8599.95,-122"/>
<text text-anchor="middle" x="8513" y="-99.8" font-family="Times,serif" font-size="14.00">CtsAppDroppableDirective </text>
</g>
<!-- CtsAppDragDropModule&#45;&gt;CtsAppDroppableDirective  -->
<g id="edge67" class="edge"><title>CtsAppDragDropModule&#45;&gt;CtsAppDroppableDirective </title>
<path fill="none" stroke="black" stroke-dasharray="5,2" d="M8948.72,-161.813C8948.72,-146.818 8948.72,-128 8948.72,-128 8948.72,-128 8593.87,-128 8593.87,-128 8593.87,-128 8593.87,-127.419 8593.87,-127.419"/>
<polygon fill="black" stroke="black" points="8597.37,-132.19 8593.87,-122.19 8590.37,-132.19 8597.37,-132.19"/>
</g>
<!-- BootstrapDateTimePickerModule -->
<g id="node48" class="node"><title>BootstrapDateTimePickerModule</title>
<polygon fill="#8dd3c7" stroke="black" points="9568.73,-198 9565.73,-202 9544.73,-202 9541.73,-198 9363.27,-198 9363.27,-162 9568.73,-162 9568.73,-198"/>
<text text-anchor="middle" x="9466" y="-175.8" font-family="Times,serif" font-size="14.00">BootstrapDateTimePickerModule</text>
</g>
<!-- BootstrapDateTimePickerModule&#45;&gt;DashboardModule -->
<g id="edge49" class="edge"><title>BootstrapDateTimePickerModule&#45;&gt;DashboardModule</title>
<path fill="none" stroke="black" d="M9420.41,-161.973C9420.41,-145.602 9420.41,-124 9420.41,-124 9420.41,-124 1068.78,-124 1068.78,-124 1068.78,-124 1068.78,-227.923 1068.78,-227.923"/>
<polygon fill="black" stroke="black" points="1065.28,-227.923 1068.78,-237.923 1072.28,-227.923 1065.28,-227.923"/>
</g>
<!-- BootstrapDateTimePicker  -->
<g id="node80" class="node"><title>BootstrapDateTimePicker </title>
<polygon fill="#fb8072" stroke="black" points="1738.68,-274 1573.32,-274 1573.32,-238 1738.68,-238 1738.68,-274"/>
<text text-anchor="middle" x="1656" y="-251.8" font-family="Times,serif" font-size="14.00">BootstrapDateTimePicker </text>
</g>
<!-- BootstrapDateTimePickerModule&#45;&gt;BootstrapDateTimePicker  -->
<g id="edge82" class="edge"><title>BootstrapDateTimePickerModule&#45;&gt;BootstrapDateTimePicker </title>
<path fill="none" stroke="black" stroke-dasharray="5,2" d="M9431.71,-198.282C9431.71,-213.948 9431.71,-234 9431.71,-234 9431.71,-234 1656,-234 1656,-234 1656,-234 1656,-234.383 1656,-234.383"/>
<polygon fill="black" stroke="black" points="1652.5,-227.832 1656,-237.832 1659.5,-227.832 1652.5,-227.832"/>
</g>
<!-- DashboardAuthGuard -->
<g id="node49" class="node"><title>DashboardAuthGuard</title>
<ellipse fill="#fdb462" stroke="black" cx="3843" cy="-180" rx="96.115" ry="18"/>
<text text-anchor="middle" x="3843" y="-175.8" font-family="Times,serif" font-size="14.00">DashboardAuthGuard</text>
</g>
<!-- DashboardAuthGuard&#45;&gt;DashboardModule -->
<g id="edge50" class="edge"><title>DashboardAuthGuard&#45;&gt;DashboardModule</title>
<path fill="none" stroke="black" d="M3843,-198.127C3843,-208.711 3843,-220 3843,-220 3843,-220 1146.05,-220 1146.05,-220 1146.05,-220 1146.05,-227.578 1146.05,-227.578"/>
<polygon fill="black" stroke="black" points="1142.55,-227.578 1146.05,-237.578 1149.55,-227.578 1142.55,-227.578"/>
</g>
<!-- DashboardAdminAuthGuard -->
<g id="node50" class="node"><title>DashboardAdminAuthGuard</title>
<ellipse fill="#fdb462" stroke="black" cx="3606" cy="-180" rx="123.263" ry="18"/>
<text text-anchor="middle" x="3606" y="-175.8" font-family="Times,serif" font-size="14.00">DashboardAdminAuthGuard</text>
</g>
<!-- DashboardAdminAuthGuard&#45;&gt;DashboardModule -->
<g id="edge51" class="edge"><title>DashboardAdminAuthGuard&#45;&gt;DashboardModule</title>
<path fill="none" stroke="black" d="M3606,-198.066C3606,-207.459 3606,-217 3606,-217 3606,-217 1141.76,-217 1141.76,-217 1141.76,-217 1141.76,-227.87 1141.76,-227.87"/>
<polygon fill="black" stroke="black" points="1138.26,-227.87 1141.76,-237.87 1145.26,-227.87 1138.26,-227.87"/>
</g>
<!-- DataRidersResolve -->
<g id="node51" class="node"><title>DataRidersResolve</title>
<ellipse fill="#fdb462" stroke="black" cx="3379" cy="-180" rx="85.6686" ry="18"/>
<text text-anchor="middle" x="3379" y="-175.8" font-family="Times,serif" font-size="14.00">DataRidersResolve</text>
</g>
<!-- DataRidersResolve&#45;&gt;DashboardModule -->
<g id="edge52" class="edge"><title>DataRidersResolve&#45;&gt;DashboardModule</title>
<path fill="none" stroke="black" d="M3379,-198.32C3379,-206.788 3379,-215 3379,-215 3379,-215 1137.46,-215 1137.46,-215 1137.46,-215 1137.46,-227.897 1137.46,-227.897"/>
<polygon fill="black" stroke="black" points="1133.96,-227.897 1137.46,-237.897 1140.96,-227.897 1133.96,-227.897"/>
</g>
<!-- RiderService -->
<g id="node52" class="node"><title>RiderService</title>
<ellipse fill="#fdb462" stroke="black" cx="3214" cy="-180" rx="61.3916" ry="18"/>
<text text-anchor="middle" x="3214" y="-175.8" font-family="Times,serif" font-size="14.00">RiderService</text>
</g>
<!-- RiderService&#45;&gt;DashboardModule -->
<g id="edge53" class="edge"><title>RiderService&#45;&gt;DashboardModule</title>
<path fill="none" stroke="black" d="M3214,-198.045C3214,-205.749 3214,-213 3214,-213 3214,-213 1133.17,-213 1133.17,-213 1133.17,-213 1133.17,-227.515 1133.17,-227.515"/>
<polygon fill="black" stroke="black" points="1129.67,-227.515 1133.17,-237.515 1136.67,-227.515 1129.67,-227.515"/>
</g>
<!-- TransactionService -->
<g id="node53" class="node"><title>TransactionService</title>
<ellipse fill="#fdb462" stroke="black" cx="3049" cy="-180" rx="85.6493" ry="18"/>
<text text-anchor="middle" x="3049" y="-175.8" font-family="Times,serif" font-size="14.00">TransactionService</text>
</g>
<!-- TransactionService&#45;&gt;DashboardModule -->
<g id="edge54" class="edge"><title>TransactionService&#45;&gt;DashboardModule</title>
<path fill="none" stroke="black" d="M3049,-198.033C3049,-204.853 3049,-211 3049,-211 3049,-211 1128.88,-211 1128.88,-211 1128.88,-211 1128.88,-227.956 1128.88,-227.956"/>
<polygon fill="black" stroke="black" points="1125.38,-227.956 1128.88,-237.956 1132.38,-227.956 1125.38,-227.956"/>
</g>
<!-- PassService -->
<g id="node54" class="node"><title>PassService</title>
<ellipse fill="#fdb462" stroke="black" cx="2888" cy="-180" rx="57.3166" ry="18"/>
<text text-anchor="middle" x="2888" y="-175.8" font-family="Times,serif" font-size="14.00">PassService</text>
</g>
<!-- PassService&#45;&gt;DashboardModule -->
<g id="edge55" class="edge"><title>PassService&#45;&gt;DashboardModule</title>
<path fill="none" stroke="black" d="M2888,-198.201C2888,-204.028 2888,-209 2888,-209 2888,-209 1124.59,-209 1124.59,-209 1124.59,-209 1124.59,-227.963 1124.59,-227.963"/>
<polygon fill="black" stroke="black" points="1121.09,-227.963 1124.59,-237.963 1128.09,-227.963 1121.09,-227.963"/>
</g>
<!-- SidebarService -->
<g id="node55" class="node"><title>SidebarService</title>
<ellipse fill="#fdb462" stroke="black" cx="2743" cy="-180" rx="69.4781" ry="18"/>
<text text-anchor="middle" x="2743" y="-175.8" font-family="Times,serif" font-size="14.00">SidebarService</text>
</g>
<!-- SidebarService&#45;&gt;DashboardModule -->
<g id="edge56" class="edge"><title>SidebarService&#45;&gt;DashboardModule</title>
<path fill="none" stroke="black" d="M2743,-198.159C2743,-203.043 2743,-207 2743,-207 2743,-207 1120.29,-207 1120.29,-207 1120.29,-207 1120.29,-227.754 1120.29,-227.754"/>
<polygon fill="black" stroke="black" points="1116.79,-227.754 1120.29,-237.754 1123.79,-227.754 1116.79,-227.754"/>
</g>
<!-- MaskService -->
<g id="node56" class="node"><title>MaskService</title>
<ellipse fill="#fdb462" stroke="black" cx="2594" cy="-180" rx="61.3935" ry="18"/>
<text text-anchor="middle" x="2594" y="-175.8" font-family="Times,serif" font-size="14.00">MaskService</text>
</g>
<!-- MaskService&#45;&gt;DashboardModule -->
<g id="edge57" class="edge"><title>MaskService&#45;&gt;DashboardModule</title>
<path fill="none" stroke="black" d="M2594,-198.169C2594,-202.046 2594,-205 2594,-205 2594,-205 1116,-205 1116,-205 1116,-205 1116,-227.876 1116,-227.876"/>
<polygon fill="black" stroke="black" points="1112.5,-227.876 1116,-237.876 1119.5,-227.876 1112.5,-227.876"/>
</g>
<!-- NgbModalStack -->
<g id="node57" class="node"><title>NgbModalStack</title>
<ellipse fill="#fdb462" stroke="black" cx="2440" cy="-180" rx="74.1605" ry="18"/>
<text text-anchor="middle" x="2440" y="-175.8" font-family="Times,serif" font-size="14.00">NgbModalStack</text>
</g>
<!-- NgbModalStack&#45;&gt;DashboardModule -->
<g id="edge58" class="edge"><title>NgbModalStack&#45;&gt;DashboardModule</title>
<path fill="none" stroke="black" d="M2440,-198.122C2440,-200.973 2440,-203 2440,-203 2440,-203 1111.71,-203 1111.71,-203 1111.71,-203 1111.71,-227.76 1111.71,-227.76"/>
<polygon fill="black" stroke="black" points="1108.21,-227.76 1111.71,-237.76 1115.21,-227.76 1108.21,-227.76"/>
</g>
<!-- SocketService -->
<g id="node58" class="node"><title>SocketService</title>
<ellipse fill="#fdb462" stroke="black" cx="2281" cy="-180" rx="66.0492" ry="18"/>
<text text-anchor="middle" x="2281" y="-175.8" font-family="Times,serif" font-size="14.00">SocketService</text>
</g>
<!-- SocketService&#45;&gt;DashboardModule -->
<g id="edge59" class="edge"><title>SocketService&#45;&gt;DashboardModule</title>
<path fill="none" stroke="black" d="M2281,-198.08C2281,-199.846 2281,-201 2281,-201 2281,-201 1107.41,-201 1107.41,-201 1107.41,-201 1107.41,-227.991 1107.41,-227.991"/>
<polygon fill="black" stroke="black" points="1103.92,-227.991 1107.41,-237.991 1110.92,-227.991 1103.92,-227.991"/>
</g>
<!-- NotificationSidebarService -->
<g id="node59" class="node"><title>NotificationSidebarService</title>
<ellipse fill="#fdb462" stroke="black" cx="2081" cy="-180" rx="116.305" ry="18"/>
<text text-anchor="middle" x="2081" y="-175.8" font-family="Times,serif" font-size="14.00">NotificationSidebarService</text>
</g>
<!-- NotificationSidebarService&#45;&gt;DashboardModule -->
<g id="edge60" class="edge"><title>NotificationSidebarService&#45;&gt;DashboardModule</title>
<path fill="none" stroke="black" d="M1971.2,-174C1715.74,-174 1103.12,-174 1103.12,-174 1103.12,-174 1103.12,-227.802 1103.12,-227.802"/>
<polygon fill="black" stroke="black" points="1099.62,-227.802 1103.12,-237.802 1106.62,-227.802 1099.62,-227.802"/>
</g>
<!-- BootstrapTourDirective -->
<g id="node60" class="node"><title>BootstrapTourDirective</title>
<polygon fill="#ffffb3" stroke="black" points="8143.73,-122 7994.27,-122 7994.27,-86 8143.73,-86 8143.73,-122"/>
<text text-anchor="middle" x="8069" y="-99.8" font-family="Times,serif" font-size="14.00">BootstrapTourDirective</text>
</g>
<!-- BootstrapTourDirective&#45;&gt;BootstrapTourModule -->
<g id="edge61" class="edge"><title>BootstrapTourDirective&#45;&gt;BootstrapTourModule</title>
<path fill="none" stroke="black" d="M8069,-122.143C8069,-128.461 8069,-134 8069,-134 8069,-134 8778.35,-134 8778.35,-134 8778.35,-134 8778.35,-151.82 8778.35,-151.82"/>
<polygon fill="black" stroke="black" points="8774.85,-151.82 8778.35,-161.82 8781.85,-151.82 8774.85,-151.82"/>
</g>
<!-- BootstrapTourService -->
<g id="node62" class="node"><title>BootstrapTourService</title>
<ellipse fill="#fdb462" stroke="black" cx="7696" cy="-104" rx="96.1266" ry="18"/>
<text text-anchor="middle" x="7696" y="-99.8" font-family="Times,serif" font-size="14.00">BootstrapTourService</text>
</g>
<!-- BootstrapTourService&#45;&gt;BootstrapTourModule -->
<g id="edge63" class="edge"><title>BootstrapTourService&#45;&gt;BootstrapTourModule</title>
<path fill="none" stroke="black" d="M7771.96,-115.133C7771.96,-125.049 7771.96,-138 7771.96,-138 7771.96,-138 8766.38,-138 8766.38,-138 8766.38,-138 8766.38,-151.944 8766.38,-151.944"/>
<polygon fill="black" stroke="black" points="8762.88,-151.944 8766.38,-161.944 8769.88,-151.945 8762.88,-151.944"/>
</g>
<!-- CtsAppDraggableDirective -->
<g id="node63" class="node"><title>CtsAppDraggableDirective</title>
<polygon fill="#ffffb3" stroke="black" points="9171.66,-122 9002.34,-122 9002.34,-86 9171.66,-86 9171.66,-122"/>
<text text-anchor="middle" x="9087" y="-99.8" font-family="Times,serif" font-size="14.00">CtsAppDraggableDirective</text>
</g>
<!-- CtsAppDraggableDirective&#45;&gt;CtsAppDragDropModule -->
<g id="edge64" class="edge"><title>CtsAppDraggableDirective&#45;&gt;CtsAppDragDropModule</title>
<path fill="none" stroke="black" d="M9037.48,-122.011C9037.48,-122.011 9037.48,-151.855 9037.48,-151.855"/>
<polygon fill="black" stroke="black" points="9033.98,-151.855 9037.48,-161.855 9040.98,-151.855 9033.98,-151.855"/>
</g>
<!-- CtsAppDroppableDirective -->
<g id="node64" class="node"><title>CtsAppDroppableDirective</title>
<polygon fill="#ffffb3" stroke="black" points="8983.95,-122 8814.05,-122 8814.05,-86 8983.95,-86 8983.95,-122"/>
<text text-anchor="middle" x="8899" y="-99.8" font-family="Times,serif" font-size="14.00">CtsAppDroppableDirective</text>
</g>
<!-- CtsAppDroppableDirective&#45;&gt;CtsAppDragDropModule -->
<g id="edge65" class="edge"><title>CtsAppDroppableDirective&#45;&gt;CtsAppDragDropModule</title>
<path fill="none" stroke="black" d="M8972.22,-122.011C8972.22,-122.011 8972.22,-151.855 8972.22,-151.855"/>
<polygon fill="black" stroke="black" points="8968.72,-151.855 8972.22,-161.855 8975.72,-151.855 8968.72,-151.855"/>
</g>
<!-- CtsAppDragDropService -->
<g id="node67" class="node"><title>CtsAppDragDropService</title>
<ellipse fill="#fdb462" stroke="black" cx="8293" cy="-104" rx="108.788" ry="18"/>
<text text-anchor="middle" x="8293" y="-99.8" font-family="Times,serif" font-size="14.00">CtsAppDragDropService</text>
</g>
<!-- CtsAppDragDropService&#45;&gt;CtsAppDragDropModule -->
<g id="edge68" class="edge"><title>CtsAppDragDropService&#45;&gt;CtsAppDragDropModule</title>
<path fill="none" stroke="black" d="M8397.62,-109.013C8397.62,-116.568 8397.62,-130 8397.62,-130 8397.62,-130 8936.97,-130 8936.97,-130 8936.97,-130 8936.97,-151.949 8936.97,-151.949"/>
<polygon fill="black" stroke="black" points="8933.47,-151.949 8936.97,-161.949 8940.47,-151.949 8933.47,-151.949"/>
</g>
<!-- WizardDirective -->
<g id="node68" class="node"><title>WizardDirective</title>
<polygon fill="#ffffb3" stroke="black" points="11618.8,-198 11509.2,-198 11509.2,-162 11618.8,-162 11618.8,-198"/>
<text text-anchor="middle" x="11564" y="-175.8" font-family="Times,serif" font-size="14.00">WizardDirective</text>
</g>
<!-- WizardDirective&#45;&gt;WizardModule -->
<g id="edge69" class="edge"><title>WizardDirective&#45;&gt;WizardModule</title>
<path fill="none" stroke="black" d="M11564,-198.415C11564,-225.006 11564,-271 11564,-271 11564,-271 9709.73,-271 9709.73,-271"/>
<polygon fill="black" stroke="black" points="9709.73,-267.5 9699.73,-271 9709.73,-274.5 9709.73,-267.5"/>
</g>
<!-- WizardStepsComponent -->
<g id="node69" class="node"><title>WizardStepsComponent</title>
<polygon fill="#ffffb3" stroke="black" points="11491.4,-198 11338.6,-198 11338.6,-162 11491.4,-162 11491.4,-198"/>
<text text-anchor="middle" x="11415" y="-175.8" font-family="Times,serif" font-size="14.00">WizardStepsComponent</text>
</g>
<!-- WizardStepsComponent&#45;&gt;WizardModule -->
<g id="edge70" class="edge"><title>WizardStepsComponent&#45;&gt;WizardModule</title>
<path fill="none" stroke="black" d="M11415,-198.234C11415,-224.009 11415,-268 11415,-268 11415,-268 9709.48,-268 9709.48,-268"/>
<polygon fill="black" stroke="black" points="9709.48,-264.5 9699.48,-268 9709.48,-271.5 9709.48,-264.5"/>
</g>
<!-- WizardStepDirective -->
<g id="node70" class="node"><title>WizardStepDirective</title>
<polygon fill="#ffffb3" stroke="black" points="11320.2,-198 11185.8,-198 11185.8,-162 11320.2,-162 11320.2,-198"/>
<text text-anchor="middle" x="11253" y="-175.8" font-family="Times,serif" font-size="14.00">WizardStepDirective</text>
</g>
<!-- WizardStepDirective&#45;&gt;WizardModule -->
<g id="edge71" class="edge"><title>WizardStepDirective&#45;&gt;WizardModule</title>
<path fill="none" stroke="black" d="M11253,-198.026C11253,-222.977 11253,-265 11253,-265 11253,-265 9709.65,-265 9709.65,-265"/>
<polygon fill="black" stroke="black" points="9709.65,-261.5 9699.65,-265 9709.65,-268.5 9709.65,-261.5"/>
</g>
<!-- WizardPreviousButtonDirective -->
<g id="node71" class="node"><title>WizardPreviousButtonDirective</title>
<polygon fill="#ffffb3" stroke="black" points="11168.4,-198 10971.6,-198 10971.6,-162 11168.4,-162 11168.4,-198"/>
<text text-anchor="middle" x="11070" y="-175.8" font-family="Times,serif" font-size="14.00">WizardPreviousButtonDirective</text>
</g>
<!-- WizardPreviousButtonDirective&#45;&gt;WizardModule -->
<g id="edge72" class="edge"><title>WizardPreviousButtonDirective&#45;&gt;WizardModule</title>
<path fill="none" stroke="black" d="M11070,-198.198C11070,-222.356 11070,-262 11070,-262 11070,-262 9709.57,-262 9709.57,-262"/>
<polygon fill="black" stroke="black" points="9709.57,-258.5 9699.57,-262 9709.57,-265.5 9709.57,-258.5"/>
</g>
<!-- WizardNextButtonDirective -->
<g id="node72" class="node"><title>WizardNextButtonDirective</title>
<polygon fill="#ffffb3" stroke="black" points="10954.1,-198 10779.9,-198 10779.9,-162 10954.1,-162 10954.1,-198"/>
<text text-anchor="middle" x="10867" y="-175.8" font-family="Times,serif" font-size="14.00">WizardNextButtonDirective</text>
</g>
<!-- WizardNextButtonDirective&#45;&gt;WizardModule -->
<g id="edge73" class="edge"><title>WizardNextButtonDirective&#45;&gt;WizardModule</title>
<path fill="none" stroke="black" d="M10867,-198.323C10867,-221.66 10867,-259 10867,-259 10867,-259 9709.4,-259 9709.4,-259"/>
<polygon fill="black" stroke="black" points="9709.4,-255.5 9699.4,-259 9709.4,-262.5 9709.4,-255.5"/>
</g>
<!-- WizardService -->
<g id="node78" class="node"><title>WizardService</title>
<ellipse fill="#fdb462" stroke="black" cx="9807" cy="-180" rx="68.315" ry="18"/>
<text text-anchor="middle" x="9807" y="-175.8" font-family="Times,serif" font-size="14.00">WizardService</text>
</g>
<!-- WizardService&#45;&gt;WizardModule -->
<g id="edge80" class="edge"><title>WizardService&#45;&gt;WizardModule</title>
<path fill="none" stroke="black" d="M9807,-198.302C9807,-216.27 9807,-241 9807,-241 9807,-241 9709.43,-241 9709.43,-241"/>
<polygon fill="black" stroke="black" points="9709.43,-237.5 9699.43,-241 9709.43,-244.5 9709.43,-237.5"/>
</g>
<!-- BootstrapDateTimePicker -->
<g id="node79" class="node"><title>BootstrapDateTimePicker</title>
<polygon fill="#ffffb3" stroke="black" points="1925.18,-274 1762.82,-274 1762.82,-238 1925.18,-238 1925.18,-274"/>
<text text-anchor="middle" x="1844" y="-251.8" font-family="Times,serif" font-size="14.00">BootstrapDateTimePicker</text>
</g>
<!-- BootstrapDateTimePicker&#45;&gt;BootstrapDateTimePickerModule -->
<g id="edge81" class="edge"><title>BootstrapDateTimePicker&#45;&gt;BootstrapDateTimePickerModule</title>
<path fill="none" stroke="black" d="M1925.12,-256C2744.82,-256 9500.29,-256 9500.29,-256 9500.29,-256 9500.29,-208.011 9500.29,-208.011"/>
<polygon fill="black" stroke="black" points="9503.79,-208.011 9500.29,-198.011 9496.79,-208.011 9503.79,-208.011"/>
</g>
<!-- NgbModalContainer -->
<g id="node81" class="node"><title>NgbModalContainer</title>
<polygon fill="#ffffb3" stroke="black" points="10136.9,-122 10005.1,-122 10005.1,-86 10136.9,-86 10136.9,-122"/>
<text text-anchor="middle" x="10071" y="-99.8" font-family="Times,serif" font-size="14.00">NgbModalContainer</text>
</g>
<!-- NgbModalContainer&#45;&gt;NgbModalModule -->
<g id="edge83" class="edge"><title>NgbModalContainer&#45;&gt;NgbModalModule</title>
<path fill="none" stroke="black" d="M10041.1,-122.027C10041.1,-138.398 10041.1,-160 10041.1,-160 10041.1,-160 9197.93,-160 9197.93,-160 9197.93,-160 9197.93,-160.185 9197.93,-160.185"/>
<polygon fill="black" stroke="black" points="9194.43,-151.845 9197.93,-161.846 9201.43,-151.846 9194.43,-151.845"/>
</g>
<!-- NgbModalBackdrop -->
<g id="node82" class="node"><title>NgbModalBackdrop</title>
<polygon fill="#ffffb3" stroke="black" points="9987.58,-122 9856.42,-122 9856.42,-86 9987.58,-86 9987.58,-122"/>
<text text-anchor="middle" x="9922" y="-99.8" font-family="Times,serif" font-size="14.00">NgbModalBackdrop</text>
</g>
<!-- NgbModalBackdrop&#45;&gt;NgbModalModule -->
<g id="edge84" class="edge"><title>NgbModalBackdrop&#45;&gt;NgbModalModule</title>
<path fill="none" stroke="black" d="M9865.93,-122.282C9865.93,-137.948 9865.93,-158 9865.93,-158 9865.93,-158 9191.34,-158 9191.34,-158 9191.34,-158 9191.34,-158.383 9191.34,-158.383"/>
<polygon fill="black" stroke="black" points="9187.84,-151.832 9191.34,-161.832 9194.84,-151.832 9187.84,-151.832"/>
</g>
<!-- NgbModalWindow -->
<g id="node83" class="node"><title>NgbModalWindow</title>
<polygon fill="#ffffb3" stroke="black" points="9838.37,-122 9713.63,-122 9713.63,-86 9838.37,-86 9838.37,-122"/>
<text text-anchor="middle" x="9776" y="-99.8" font-family="Times,serif" font-size="14.00">NgbModalWindow</text>
</g>
<!-- NgbModalWindow&#45;&gt;NgbModalModule -->
<g id="edge85" class="edge"><title>NgbModalWindow&#45;&gt;NgbModalModule</title>
<path fill="none" stroke="black" d="M9726.08,-122.187C9726.08,-137.182 9726.08,-156 9726.08,-156 9726.08,-156 9184.76,-156 9184.76,-156 9184.76,-156 9184.76,-156.581 9184.76,-156.581"/>
<polygon fill="black" stroke="black" points="9181.26,-151.81 9184.76,-161.81 9188.26,-151.81 9181.26,-151.81"/>
</g>
<!-- ConfirmationModalComponent -->
<g id="node84" class="node"><title>ConfirmationModalComponent</title>
<polygon fill="#ffffb3" stroke="black" points="9695.82,-122 9502.18,-122 9502.18,-86 9695.82,-86 9695.82,-122"/>
<text text-anchor="middle" x="9599" y="-99.8" font-family="Times,serif" font-size="14.00">ConfirmationModalComponent</text>
</g>
<!-- ConfirmationModalComponent&#45;&gt;NgbModalModule -->
<g id="edge86" class="edge"><title>ConfirmationModalComponent&#45;&gt;NgbModalModule</title>
<path fill="none" stroke="black" d="M9535.6,-122.051C9535.6,-136.373 9535.6,-154 9535.6,-154 9535.6,-154 9178.17,-154 9178.17,-154 9178.17,-154 9178.17,-154.794 9178.17,-154.794"/>
<polygon fill="black" stroke="black" points="9174.67,-151.942 9178.17,-161.942 9181.67,-151.942 9174.67,-151.942"/>
</g>
<!-- NgbModal -->
<g id="node86" class="node"><title>NgbModal</title>
<ellipse fill="#fdb462" stroke="black" cx="9265" cy="-104" rx="52.7527" ry="18"/>
<text text-anchor="middle" x="9265" y="-99.8" font-family="Times,serif" font-size="14.00">NgbModal</text>
</g>
<!-- NgbModal&#45;&gt;NgbModalModule -->
<g id="edge88" class="edge"><title>NgbModal&#45;&gt;NgbModalModule</title>
<path fill="none" stroke="black" d="M9220.48,-113.936C9220.48,-134.536 9220.48,-180 9220.48,-180 9220.48,-180 9219.55,-180 9219.55,-180"/>
<polygon fill="black" stroke="black" points="9221.11,-176.5 9211.11,-180 9221.11,-183.5 9221.11,-176.5"/>
</g>
</g>
</svg>
